ch7/section7.3/7.3.3/top_tb.vcd
$date
	Tue Aug 20 21:22:16 2024
$end

$version
	Synopsys VCS version O-2018.09-1_Full64
$end

$timescale
	1ps
$end

$comment Csum: 1 da35f88aabf6c4ae $end


$scope module top_tb $end
$var reg 1 ! clk $end
$var reg 1 " rst_n $end
$var reg 8 # rxd [7:0] $end
$var reg 1 $ rx_dv $end
$var wire 8 % txd [7:0] $end
$var wire 1 & tx_en $end

$scope begin unnamed$$_vcs_4 $end
$upscope $end


$scope begin unnamed$$_vcs_0 $end
$upscope $end


$scope begin unnamed$$_vcs_1 $end
$upscope $end


$scope begin unnamed$$_vcs_2 $end
$upscope $end


$scope begin unnamed$$_vcs_3 $end
$upscope $end


$scope module input_if $end
$var wire 1 ' clk $end
$var wire 1 ( rst_n $end
$var reg 8 ) data [7:0] $end
$var reg 1 * valid $end
$upscope $end


$scope module output_if $end
$var wire 1 + clk $end
$var wire 1 , rst_n $end
$var reg 8 - data [7:0] $end
$var reg 1 . valid $end
$upscope $end


$scope module bk_if $end
$var wire 1 / rst_n $end
$var wire 1 0 clk $end

$scope function poke_counter $end
$var reg 32 1 value [31:0] $end
$upscope $end


$scope function peek_counter $end
$var reg 32 2 value [31:0] $end
$upscope $end

$upscope $end


$scope module b_if $end
$var wire 1 3 clk $end
$var wire 1 4 rst_n $end
$var reg 1 5 bus_cmd_valid $end
$var reg 1 6 bus_op $end
$var reg 16 7 bus_addr [15:0] $end
$var reg 16 8 bus_wr_data [15:0] $end
$var reg 16 9 bus_rd_data [15:0] $end
$upscope $end


$scope module my_dut $end
$var reg 32 : counter [31:0] $end
$var wire 1 ; clk $end
$var wire 1 < rst_n $end
$var wire 1 = bus_cmd_valid $end
$var wire 1 > bus_op $end
$var wire 16 ? bus_addr [15:0] $end
$var wire 16 @ bus_wr_data [15:0] $end
$var reg 16 A bus_rd_data [15:0] $end
$var wire 8 B rxd [7:0] $end
$var wire 1 C rx_dv $end
$var reg 8 D txd [7:0] $end
$var reg 1 E tx_en $end
$var reg 1 F invert $end
$var wire 17 G counter_low_result [16:0] $end
$var wire 17 H counter_high_result [16:0] $end

$scope module low_adder $end
$var wire 16 I augend [15:0] $end
$var wire 16 J addend [15:0] $end
$var wire 17 G result [16:0] $end
$upscope $end


$scope module high_adder $end
$var wire 16 K augend [15:0] $end
$var wire 16 L addend [15:0] $end
$var wire 17 H result [16:0] $end
$upscope $end

$upscope $end

$upscope $end

$enddefinitions $end

#0
$dumpvars
0!
0"
x$
z&
bxxxxxxxx #
bzzzzzzzz %
bxxxxxxxx )
bxxxxxxxx -
b00000000000000000000000000000000 2
b00000000000000000000000000000000 1
bxxxxxxxxxxxxxxxx 9
b0000000000000000 8
b0000000000000000 7
xF
xE
b0000000000000001 J
bxxxxxxxxxxxxxxxx A
bxxxxxxxxxxxxxxxxxxxxxxxxxxxxxxxx :
bxxxxxxxxxxxxxxxxx H
bxxxxxxxxxxxxxxxxx G
b0000000000000001 L
bxxxxxxxxxxxxxxxx K
bxxxxxxxxxxxxxxxx I
bxxxxxxxx D
0'
0+
00
03
0;
0(
0,
0/
04
0<
b0000000000000000 ?
b0000000000000000 @
bxxxxxxxx B
0=
0>
xC
x*
x.
05
06
$end
#100000
1!
1'
1+
10
13
1;
b00000000 D
b00000000 -
0E
0.
bxxxxxxxxxxxxxxxx0000000000000000 :
b0000000000000000 I
b00000000000000001 G
b00000000000000000000000000000000 :
b0000000000000000 K
b00000000000000001 H
0F
b0000000000000000 A
b0000000000000000 9
#200000
0!
0'
0+
00
03
0;
#300000
1!
1'
1+
10
13
1;
#400000
0!
0'
0+
00
03
0;
#500000
1!
1'
1+
10
13
1;
#600000
0!
0'
0+
00
03
0;
#700000
1!
1'
1+
10
13
1;
#800000
0!
0'
0+
00
03
0;
#900000
1!
1'
1+
10
13
1;
#1000000
1"
1(
1,
1/
14
1<
0!
0'
0+
00
03
0;
b00000000000000001111111111111101 1
b00000000000000001111111111111101 :
b1111111111111101 I
b01111111111111110 G
0*
0C
b00000000 )
b00000000 B
#1100000
1!
1'
1+
10
13
1;
#1200000
0!
0'
0+
00
03
0;
#1300000
1!
1'
1+
10
13
1;
b0000000000001001 7
b0000000000001001 ?
15
1=
#1400000
0!
0'
0+
00
03
0;
#1500000
1!
1'
1+
10
13
1;
05
0=
b0000000000000000 7
b0000000000000000 ?
#1600000
0!
0'
0+
00
03
0;
#1700000
1!
1'
1+
10
13
1;
#1800000
0!
0'
0+
00
03
0;
#1900000
1!
1'
1+
10
13
1;
b0000000000001001 7
b0000000000001001 ?
15
1=
16
1>
b0000000000000001 8
b0000000000000001 @
#2000000
0!
0'
0+
00
03
0;
#2100000
1!
1'
1+
10
13
1;
05
0=
06
0>
b0000000000000000 7
b0000000000000000 ?
b0000000000000000 8
b0000000000000000 @
1F
#2200000
0!
0'
0+
00
03
0;
#2300000
1!
1'
1+
10
13
1;
b11111111 D
b11111111 -
#2400000
0!
0'
0+
00
03
0;
#2500000
1!
1'
1+
10
13
1;
b0000000000001001 7
b0000000000001001 ?
15
1=
#2600000
0!
0'
0+
00
03
0;
#2700000
1!
1'
1+
10
13
1;
05
0=
b0000000000000000 7
b0000000000000000 ?
b0000000000000001 A
b0000000000000001 9
#2800000
0!
0'
0+
00
03
0;
#2900000
1!
1'
1+
10
13
1;
#3000000
0!
0'
0+
00
03
0;
#3100000
1!
1'
1+
10
13
1;
b0000000000001001 7
b0000000000001001 ?
15
1=
16
1>
#3200000
0!
0'
0+
00
03
0;
#3300000
1!
1'
1+
10
13
1;
05
0=
06
0>
b0000000000000000 7
b0000000000000000 ?
0F
#3400000
0!
0'
0+
00
03
0;
#3500000
1!
1'
1+
10
13
1;
b00000000 D
b00000000 -
#3600000
0!
0'
0+
00
03
0;
#3700000
1!
1'
1+
10
13
1;
b0000000000001001 7
b0000000000001001 ?
15
1=
#3800000
0!
0'
0+
00
03
0;
#3900000
1!
1'
1+
10
13
1;
05
0=
b0000000000000000 7
b0000000000000000 ?
b0000000000000000 A
b0000000000000000 9
#4000000
0!
0'
0+
00
03
0;
#4100000
1!
1'
1+
10
13
1;
#4200000
0!
0'
0+
00
03
0;
#4300000
1!
1'
1+
10
13
1;
b0000000000000101 7
b0000000000000101 ?
15
1=
#4400000
0!
0'
0+
00
03
0;
#4500000
1!
1'
1+
10
13
1;
05
0=
b0000000000000000 7
b0000000000000000 ?
#4600000
0!
0'
0+
00
03
0;
#4700000
1!
1'
1+
10
13
1;
#4800000
0!
0'
0+
00
03
0;
#4900000
1!
1'
1+
10
13
1;
b0000000000000110 7
b0000000000000110 ?
15
1=
#5000000
0!
0'
0+
00
03
0;
#5100000
1!
1'
1+
10
13
1;
05
0=
b0000000000000000 7
b0000000000000000 ?
b1111111111111101 A
b1111111111111101 9
#5200000
0!
0'
0+
00
03
0;
#5300000
1!
1'
1+
10
13
1;
#5400000
0!
0'
0+
00
03
0;
#5500000
1!
1'
1+
10
13
1;
#5600000
0!
0'
0+
00
03
0;
#5700000
1!
1'
1+
10
13
1;
#5800000
0!
0'
0+
00
03
0;
#5900000
1!
1'
1+
10
13
1;
#6000000
0!
0'
0+
00
03
0;
#6100000
1!
1'
1+
10
13
1;
1*
1C
b01011010 )
b01011010 B
#6200000
0!
0'
0+
00
03
0;
#6300000
1!
1'
1+
10
13
1;
b00010010 )
b00010010 B
b01011010 D
b01011010 -
1E
1.
b00000000000000001111111111111110 :
b1111111111111110 I
b01111111111111111 G
#6400000
0!
0'
0+
00
03
0;
#6500000
1!
1'
1+
10
13
1;
b00000001 )
b00000001 B
b00010010 D
b00010010 -
b00000000000000001111111111111111 :
b1111111111111111 I
b10000000000000000 G
#6600000
0!
0'
0+
00
03
0;
#6700000
1!
1'
1+
10
13
1;
b01011001 )
b01011001 B
b00000001 D
b00000001 -
b00000000000000000000000000000000 :
b0000000000000000 I
b00000000000000001 G
b00000000000000010000000000000000 :
b0000000000000001 K
b00000000000000010 H
#6800000
0!
0'
0+
00
03
0;
#6900000
1!
1'
1+
10
13
1;
b10110110 )
b10110110 B
b01011001 D
b01011001 -
b00000000000000010000000000000001 :
b0000000000000001 I
b00000000000000010 G
#7000000
0!
0'
0+
00
03
0;
#7100000
1!
1'
1+
10
13
1;
b00000110 )
b00000110 B
b10110110 D
b10110110 -
b00000000000000010000000000000010 :
b0000000000000010 I
b00000000000000011 G
#7200000
0!
0'
0+
00
03
0;
#7300000
1!
1'
1+
10
13
1;
b11010010 )
b11010010 B
b00000110 D
b00000110 -
b00000000000000010000000000000011 :
b0000000000000011 I
b00000000000000100 G
#7400000
0!
0'
0+
00
03
0;
#7500000
1!
1'
1+
10
13
1;
b10010110 )
b10010110 B
b11010010 D
b11010010 -
b00000000000000010000000000000100 :
b0000000000000100 I
b00000000000000101 G
#7600000
0!
0'
0+
00
03
0;
#7700000
1!
1'
1+
10
13
1;
b11111100 )
b11111100 B
b10010110 D
b10010110 -
b00000000000000010000000000000101 :
b0000000000000101 I
b00000000000000110 G
#7800000
0!
0'
0+
00
03
0;
#7900000
1!
1'
1+
10
13
1;
b01110100 )
b01110100 B
b11111100 D
b11111100 -
b00000000000000010000000000000110 :
b0000000000000110 I
b00000000000000111 G
#8000000
0!
0'
0+
00
03
0;
#8100000
1!
1'
1+
10
13
1;
b11000011 )
b11000011 B
b01110100 D
b01110100 -
b00000000000000010000000000000111 :
b0000000000000111 I
b00000000000001000 G
#8200000
0!
0'
0+
00
03
0;
#8300000
1!
1'
1+
10
13
1;
b00010011 )
b00010011 B
b11000011 D
b11000011 -
b00000000000000010000000000001000 :
b0000000000001000 I
b00000000000001001 G
#8400000
0!
0'
0+
00
03
0;
#8500000
1!
1'
1+
10
13
1;
b01001101 )
b01001101 B
b00010011 D
b00010011 -
b00000000000000010000000000001001 :
b0000000000001001 I
b00000000000001010 G
#8600000
0!
0'
0+
00
03
0;
#8700000
1!
1'
1+
10
13
1;
b00111001 )
b00111001 B
b01001101 D
b01001101 -
b00000000000000010000000000001010 :
b0000000000001010 I
b00000000000001011 G
#8800000
0!
0'
0+
00
03
0;
#8900000
1!
1'
1+
10
13
1;
b10000011 )
b10000011 B
b00111001 D
b00111001 -
b00000000000000010000000000001011 :
b0000000000001011 I
b00000000000001100 G
#9000000
0!
0'
0+
00
03
0;
#9100000
1!
1'
1+
10
13
1;
b01000110 )
b01000110 B
b10000011 D
b10000011 -
b00000000000000010000000000001100 :
b0000000000001100 I
b00000000000001101 G
#9200000
0!
0'
0+
00
03
0;
#9300000
1!
1'
1+
10
13
1;
b00111111 )
b00111111 B
b01000110 D
b01000110 -
b00000000000000010000000000001101 :
b0000000000001101 I
b00000000000001110 G
#9400000
0!
0'
0+
00
03
0;
#9500000
1!
1'
1+
10
13
1;
b00000111 )
b00000111 B
b00111111 D
b00111111 -
b00000000000000010000000000001110 :
b0000000000001110 I
b00000000000001111 G
#9600000
0!
0'
0+
00
03
0;
#9700000
1!
1'
1+
10
13
1;
b10100101 )
b10100101 B
b00000111 D
b00000111 -
b00000000000000010000000000001111 :
b0000000000001111 I
b00000000000010000 G
#9800000
0!
0'
0+
00
03
0;
#9900000
1!
1'
1+
10
13
1;
b00111001 )
b00111001 B
b10100101 D
b10100101 -
b00000000000000010000000000010000 :
b0000000000010000 I
b00000000000010001 G
#10000000
0!
0'
0+
00
03
0;
#10100000
1!
1'
1+
10
13
1;
b00011001 )
b00011001 B
b00111001 D
b00111001 -
b00000000000000010000000000010001 :
b0000000000010001 I
b00000000000010010 G
#10200000
0!
0'
0+
00
03
0;
#10300000
1!
1'
1+
10
13
1;
b11110101 )
b11110101 B
b00011001 D
b00011001 -
b00000000000000010000000000010010 :
b0000000000010010 I
b00000000000010011 G
#10400000
0!
0'
0+
00
03
0;
#10500000
1!
1'
1+
10
13
1;
b01101011 )
b01101011 B
b11110101 D
b11110101 -
b00000000000000010000000000010011 :
b0000000000010011 I
b00000000000010100 G
#10600000
0!
0'
0+
00
03
0;
#10700000
1!
1'
1+
10
13
1;
b00011101 )
b00011101 B
b01101011 D
b01101011 -
b00000000000000010000000000010100 :
b0000000000010100 I
b00000000000010101 G
#10800000
0!
0'
0+
00
03
0;
#10900000
1!
1'
1+
10
13
1;
b00001101 )
b00001101 B
b00011101 D
b00011101 -
b00000000000000010000000000010101 :
b0000000000010101 I
b00000000000010110 G
#11000000
0!
0'
0+
00
03
0;
#11100000
1!
1'
1+
10
13
1;
b10010101 )
b10010101 B
b00001101 D
b00001101 -
b00000000000000010000000000010110 :
b0000000000010110 I
b00000000000010111 G
#11200000
0!
0'
0+
00
03
0;
#11300000
1!
1'
1+
10
13
1;
b11000000 )
b11000000 B
b10010101 D
b10010101 -
b00000000000000010000000000010111 :
b0000000000010111 I
b00000000000011000 G
#11400000
0!
0'
0+
00
03
0;
#11500000
1!
1'
1+
10
13
1;
b00011110 )
b00011110 B
b11000000 D
b11000000 -
b00000000000000010000000000011000 :
b0000000000011000 I
b00000000000011001 G
#11600000
0!
0'
0+
00
03
0;
#11700000
1!
1'
1+
10
13
1;
b11000011 )
b11000011 B
b00011110 D
b00011110 -
b00000000000000010000000000011001 :
b0000000000011001 I
b00000000000011010 G
#11800000
0!
0'
0+
00
03
0;
#11900000
1!
1'
1+
10
13
1;
b00101010 )
b00101010 B
b11000011 D
b11000011 -
b00000000000000010000000000011010 :
b0000000000011010 I
b00000000000011011 G
#12000000
0!
0'
0+
00
03
0;
#12100000
1!
1'
1+
10
13
1;
b10000110 )
b10000110 B
b00101010 D
b00101010 -
b00000000000000010000000000011011 :
b0000000000011011 I
b00000000000011100 G
#12200000
0!
0'
0+
00
03
0;
#12300000
1!
1'
1+
10
13
1;
b00001111 )
b00001111 B
b10000110 D
b10000110 -
b00000000000000010000000000011100 :
b0000000000011100 I
b00000000000011101 G
#12400000
0!
0'
0+
00
03
0;
#12500000
1!
1'
1+
10
13
1;
b00011000 )
b00011000 B
b00001111 D
b00001111 -
b00000000000000010000000000011101 :
b0000000000011101 I
b00000000000011110 G
#12600000
0!
0'
0+
00
03
0;
#12700000
1!
1'
1+
10
13
1;
b11101111 )
b11101111 B
b00011000 D
b00011000 -
b00000000000000010000000000011110 :
b0000000000011110 I
b00000000000011111 G
#12800000
0!
0'
0+
00
03
0;
#12900000
1!
1'
1+
10
13
1;
b10011101 )
b10011101 B
b11101111 D
b11101111 -
b00000000000000010000000000011111 :
b0000000000011111 I
b00000000000100000 G
#13000000
0!
0'
0+
00
03
0;
#13100000
1!
1'
1+
10
13
1;
b10010000 )
b10010000 B
b10011101 D
b10011101 -
b00000000000000010000000000100000 :
b0000000000100000 I
b00000000000100001 G
#13200000
0!
0'
0+
00
03
0;
#13300000
1!
1'
1+
10
13
1;
b10001000 )
b10001000 B
b10010000 D
b10010000 -
b00000000000000010000000000100001 :
b0000000000100001 I
b00000000000100010 G
#13400000
0!
0'
0+
00
03
0;
#13500000
1!
1'
1+
10
13
1;
b00001011 )
b00001011 B
b10001000 D
b10001000 -
b00000000000000010000000000100010 :
b0000000000100010 I
b00000000000100011 G
#13600000
0!
0'
0+
00
03
0;
#13700000
1!
1'
1+
10
13
1;
b00010110 )
b00010110 B
b00001011 D
b00001011 -
b00000000000000010000000000100011 :
b0000000000100011 I
b00000000000100100 G
#13800000
0!
0'
0+
00
03
0;
#13900000
1!
1'
1+
10
13
1;
b01101100 )
b01101100 B
b00010110 D
b00010110 -
b00000000000000010000000000100100 :
b0000000000100100 I
b00000000000100101 G
#14000000
0!
0'
0+
00
03
0;
#14100000
1!
1'
1+
10
13
1;
b01110101 )
b01110101 B
b01101100 D
b01101100 -
b00000000000000010000000000100101 :
b0000000000100101 I
b00000000000100110 G
#14200000
0!
0'
0+
00
03
0;
#14300000
1!
1'
1+
10
13
1;
b11110001 )
b11110001 B
b01110101 D
b01110101 -
b00000000000000010000000000100110 :
b0000000000100110 I
b00000000000100111 G
#14400000
0!
0'
0+
00
03
0;
#14500000
1!
1'
1+
10
13
1;
b11000110 )
b11000110 B
b11110001 D
b11110001 -
b00000000000000010000000000100111 :
b0000000000100111 I
b00000000000101000 G
#14600000
0!
0'
0+
00
03
0;
#14700000
1!
1'
1+
10
13
1;
b10100111 )
b10100111 B
b11000110 D
b11000110 -
b00000000000000010000000000101000 :
b0000000000101000 I
b00000000000101001 G
#14800000
0!
0'
0+
00
03
0;
#14900000
1!
1'
1+
10
13
1;
b01010000 )
b01010000 B
b10100111 D
b10100111 -
b00000000000000010000000000101001 :
b0000000000101001 I
b00000000000101010 G
#15000000
0!
0'
0+
00
03
0;
#15100000
1!
1'
1+
10
13
1;
b11110111 )
b11110111 B
b01010000 D
b01010000 -
b00000000000000010000000000101010 :
b0000000000101010 I
b00000000000101011 G
#15200000
0!
0'
0+
00
03
0;
#15300000
1!
1'
1+
10
13
1;
b11111011 )
b11111011 B
b11110111 D
b11110111 -
b00000000000000010000000000101011 :
b0000000000101011 I
b00000000000101100 G
#15400000
0!
0'
0+
00
03
0;
#15500000
1!
1'
1+
10
13
1;
b00110101 )
b00110101 B
b11111011 D
b11111011 -
b00000000000000010000000000101100 :
b0000000000101100 I
b00000000000101101 G
#15600000
0!
0'
0+
00
03
0;
#15700000
1!
1'
1+
10
13
1;
b01100100 )
b01100100 B
b00110101 D
b00110101 -
b00000000000000010000000000101101 :
b0000000000101101 I
b00000000000101110 G
#15800000
0!
0'
0+
00
03
0;
#15900000
1!
1'
1+
10
13
1;
b11010101 )
b11010101 B
b01100100 D
b01100100 -
b00000000000000010000000000101110 :
b0000000000101110 I
b00000000000101111 G
#16000000
0!
0'
0+
00
03
0;
#16100000
1!
1'
1+
10
13
1;
b01101010 )
b01101010 B
b11010101 D
b11010101 -
b00000000000000010000000000101111 :
b0000000000101111 I
b00000000000110000 G
#16200000
0!
0'
0+
00
03
0;
#16300000
1!
1'
1+
10
13
1;
b10001111 )
b10001111 B
b01101010 D
b01101010 -
b00000000000000010000000000110000 :
b0000000000110000 I
b00000000000110001 G
#16400000
0!
0'
0+
00
03
0;
#16500000
1!
1'
1+
10
13
1;
b01000100 )
b01000100 B
b10001111 D
b10001111 -
b00000000000000010000000000110001 :
b0000000000110001 I
b00000000000110010 G
#16600000
0!
0'
0+
00
03
0;
#16700000
1!
1'
1+
10
13
1;
b11110110 )
b11110110 B
b01000100 D
b01000100 -
b00000000000000010000000000110010 :
b0000000000110010 I
b00000000000110011 G
#16800000
0!
0'
0+
00
03
0;
#16900000
1!
1'
1+
10
13
1;
b00000111 )
b00000111 B
b11110110 D
b11110110 -
b00000000000000010000000000110011 :
b0000000000110011 I
b00000000000110100 G
#17000000
0!
0'
0+
00
03
0;
#17100000
1!
1'
1+
10
13
1;
b10010111 )
b10010111 B
b00000111 D
b00000111 -
b00000000000000010000000000110100 :
b0000000000110100 I
b00000000000110101 G
#17200000
0!
0'
0+
00
03
0;
#17300000
1!
1'
1+
10
13
1;
b10111010 )
b10111010 B
b10010111 D
b10010111 -
b00000000000000010000000000110101 :
b0000000000110101 I
b00000000000110110 G
#17400000
0!
0'
0+
00
03
0;
#17500000
1!
1'
1+
10
13
1;
b00100001 )
b00100001 B
b10111010 D
b10111010 -
b00000000000000010000000000110110 :
b0000000000110110 I
b00000000000110111 G
#17600000
0!
0'
0+
00
03
0;
#17700000
1!
1'
1+
10
13
1;
b10010110 )
b10010110 B
b00100001 D
b00100001 -
b00000000000000010000000000110111 :
b0000000000110111 I
b00000000000111000 G
#17800000
0!
0'
0+
00
03
0;
#17900000
1!
1'
1+
10
13
1;
b01111111 )
b01111111 B
b10010110 D
b10010110 -
b00000000000000010000000000111000 :
b0000000000111000 I
b00000000000111001 G
#18000000
0!
0'
0+
00
03
0;
#18100000
1!
1'
1+
10
13
1;
b01100011 )
b01100011 B
b01111111 D
b01111111 -
b00000000000000010000000000111001 :
b0000000000111001 I
b00000000000111010 G
#18200000
0!
0'
0+
00
03
0;
#18300000
1!
1'
1+
10
13
1;
b10101100 )
b10101100 B
b01100011 D
b01100011 -
b00000000000000010000000000111010 :
b0000000000111010 I
b00000000000111011 G
#18400000
0!
0'
0+
00
03
0;
#18500000
1!
1'
1+
10
13
1;
b11011000 )
b11011000 B
b10101100 D
b10101100 -
b00000000000000010000000000111011 :
b0000000000111011 I
b00000000000111100 G
#18600000
0!
0'
0+
00
03
0;
#18700000
1!
1'
1+
10
13
1;
b11111001 )
b11111001 B
b11011000 D
b11011000 -
b00000000000000010000000000111100 :
b0000000000111100 I
b00000000000111101 G
#18800000
0!
0'
0+
00
03
0;
#18900000
1!
1'
1+
10
13
1;
b10101100 )
b10101100 B
b11111001 D
b11111001 -
b00000000000000010000000000111101 :
b0000000000111101 I
b00000000000111110 G
#19000000
0!
0'
0+
00
03
0;
#19100000
1!
1'
1+
10
13
1;
b01001110 )
b01001110 B
b10101100 D
b10101100 -
b00000000000000010000000000111110 :
b0000000000111110 I
b00000000000111111 G
#19200000
0!
0'
0+
00
03
0;
#19300000
1!
1'
1+
10
13
1;
b00101000 )
b00101000 B
b01001110 D
b01001110 -
b00000000000000010000000000111111 :
b0000000000111111 I
b00000000001000000 G
#19400000
0!
0'
0+
00
03
0;
#19500000
1!
1'
1+
10
13
1;
b11110000 )
b11110000 B
b00101000 D
b00101000 -
b00000000000000010000000001000000 :
b0000000001000000 I
b00000000001000001 G
#19600000
0!
0'
0+
00
03
0;
#19700000
1!
1'
1+
10
13
1;
b01100100 )
b01100100 B
b11110000 D
b11110000 -
b00000000000000010000000001000001 :
b0000000001000001 I
b00000000001000010 G
#19800000
0!
0'
0+
00
03
0;
#19900000
1!
1'
1+
10
13
1;
b01001000 )
b01001000 B
b01100100 D
b01100100 -
b00000000000000010000000001000010 :
b0000000001000010 I
b00000000001000011 G
#20000000
0!
0'
0+
00
03
0;
#20100000
1!
1'
1+
10
13
1;
b01110110 )
b01110110 B
b01001000 D
b01001000 -
b00000000000000010000000001000011 :
b0000000001000011 I
b00000000001000100 G
#20200000
0!
0'
0+
00
03
0;
#20300000
1!
1'
1+
10
13
1;
b10011101 )
b10011101 B
b01110110 D
b01110110 -
b00000000000000010000000001000100 :
b0000000001000100 I
b00000000001000101 G
#20400000
0!
0'
0+
00
03
0;
#20500000
1!
1'
1+
10
13
1;
b00111011 )
b00111011 B
b10011101 D
b10011101 -
b00000000000000010000000001000101 :
b0000000001000101 I
b00000000001000110 G
#20600000
0!
0'
0+
00
03
0;
#20700000
1!
1'
1+
10
13
1;
b11110000 )
b11110000 B
b00111011 D
b00111011 -
b00000000000000010000000001000110 :
b0000000001000110 I
b00000000001000111 G
#20800000
0!
0'
0+
00
03
0;
#20900000
1!
1'
1+
10
13
1;
b00011110 )
b00011110 B
b11110000 D
b11110000 -
b00000000000000010000000001000111 :
b0000000001000111 I
b00000000001001000 G
#21000000
0!
0'
0+
00
03
0;
#21100000
1!
1'
1+
10
13
1;
b01100100 )
b01100100 B
b00011110 D
b00011110 -
b00000000000000010000000001001000 :
b0000000001001000 I
b00000000001001001 G
#21200000
0!
0'
0+
00
03
0;
#21300000
1!
1'
1+
10
13
1;
b11100110 )
b11100110 B
b01100100 D
b01100100 -
b00000000000000010000000001001001 :
b0000000001001001 I
b00000000001001010 G
#21400000
0!
0'
0+
00
03
0;
#21500000
1!
1'
1+
10
13
1;
b10111110 )
b10111110 B
b11100110 D
b11100110 -
b00000000000000010000000001001010 :
b0000000001001010 I
b00000000001001011 G
#21600000
0!
0'
0+
00
03
0;
#21700000
1!
1'
1+
10
13
1;
b00010011 )
b00010011 B
b10111110 D
b10111110 -
b00000000000000010000000001001011 :
b0000000001001011 I
b00000000001001100 G
#21800000
0!
0'
0+
00
03
0;
#21900000
1!
1'
1+
10
13
1;
b10101110 )
b10101110 B
b00010011 D
b00010011 -
b00000000000000010000000001001100 :
b0000000001001100 I
b00000000001001101 G
#22000000
0!
0'
0+
00
03
0;
#22100000
1!
1'
1+
10
13
1;
b01101001 )
b01101001 B
b10101110 D
b10101110 -
b00000000000000010000000001001101 :
b0000000001001101 I
b00000000001001110 G
#22200000
0!
0'
0+
00
03
0;
#22300000
1!
1'
1+
10
13
1;
b10000001 )
b10000001 B
b01101001 D
b01101001 -
b00000000000000010000000001001110 :
b0000000001001110 I
b00000000001001111 G
#22400000
0!
0'
0+
00
03
0;
#22500000
1!
1'
1+
10
13
1;
b01101100 )
b01101100 B
b10000001 D
b10000001 -
b00000000000000010000000001001111 :
b0000000001001111 I
b00000000001010000 G
#22600000
0!
0'
0+
00
03
0;
#22700000
1!
1'
1+
10
13
1;
b11000001 )
b11000001 B
b01101100 D
b01101100 -
b00000000000000010000000001010000 :
b0000000001010000 I
b00000000001010001 G
#22800000
0!
0'
0+
00
03
0;
#22900000
1!
1'
1+
10
13
1;
b10110100 )
b10110100 B
b11000001 D
b11000001 -
b00000000000000010000000001010001 :
b0000000001010001 I
b00000000001010010 G
#23000000
0!
0'
0+
00
03
0;
#23100000
1!
1'
1+
10
13
1;
b00111100 )
b00111100 B
b10110100 D
b10110100 -
b00000000000000010000000001010010 :
b0000000001010010 I
b00000000001010011 G
#23200000
0!
0'
0+
00
03
0;
#23300000
1!
1'
1+
10
13
1;
b11011111 )
b11011111 B
b00111100 D
b00111100 -
b00000000000000010000000001010011 :
b0000000001010011 I
b00000000001010100 G
#23400000
0!
0'
0+
00
03
0;
#23500000
1!
1'
1+
10
13
1;
b10100010 )
b10100010 B
b11011111 D
b11011111 -
b00000000000000010000000001010100 :
b0000000001010100 I
b00000000001010101 G
#23600000
0!
0'
0+
00
03
0;
#23700000
1!
1'
1+
10
13
1;
b00110011 )
b00110011 B
b10100010 D
b10100010 -
b00000000000000010000000001010101 :
b0000000001010101 I
b00000000001010110 G
#23800000
0!
0'
0+
00
03
0;
#23900000
1!
1'
1+
10
13
1;
b01101111 )
b01101111 B
b00110011 D
b00110011 -
b00000000000000010000000001010110 :
b0000000001010110 I
b00000000001010111 G
#24000000
0!
0'
0+
00
03
0;
#24100000
1!
1'
1+
10
13
1;
b01000011 )
b01000011 B
b01101111 D
b01101111 -
b00000000000000010000000001010111 :
b0000000001010111 I
b00000000001011000 G
#24200000
0!
0'
0+
00
03
0;
#24300000
1!
1'
1+
10
13
1;
b00101110 )
b00101110 B
b01000011 D
b01000011 -
b00000000000000010000000001011000 :
b0000000001011000 I
b00000000001011001 G
#24400000
0!
0'
0+
00
03
0;
#24500000
1!
1'
1+
10
13
1;
b00011111 )
b00011111 B
b00101110 D
b00101110 -
b00000000000000010000000001011001 :
b0000000001011001 I
b00000000001011010 G
#24600000
0!
0'
0+
00
03
0;
#24700000
1!
1'
1+
10
13
1;
b01000100 )
b01000100 B
b00011111 D
b00011111 -
b00000000000000010000000001011010 :
b0000000001011010 I
b00000000001011011 G
#24800000
0!
0'
0+
00
03
0;
#24900000
1!
1'
1+
10
13
1;
b11010101 )
b11010101 B
b01000100 D
b01000100 -
b00000000000000010000000001011011 :
b0000000001011011 I
b00000000001011100 G
#25000000
0!
0'
0+
00
03
0;
#25100000
1!
1'
1+
10
13
1;
b00101101 )
b00101101 B
b11010101 D
b11010101 -
b00000000000000010000000001011100 :
b0000000001011100 I
b00000000001011101 G
#25200000
0!
0'
0+
00
03
0;
#25300000
1!
1'
1+
10
13
1;
b00100110 )
b00100110 B
b00101101 D
b00101101 -
b00000000000000010000000001011101 :
b0000000001011101 I
b00000000001011110 G
#25400000
0!
0'
0+
00
03
0;
#25500000
1!
1'
1+
10
13
1;
b00010100 )
b00010100 B
b00100110 D
b00100110 -
b00000000000000010000000001011110 :
b0000000001011110 I
b00000000001011111 G
#25600000
0!
0'
0+
00
03
0;
#25700000
1!
1'
1+
10
13
1;
b01101001 )
b01101001 B
b00010100 D
b00010100 -
b00000000000000010000000001011111 :
b0000000001011111 I
b00000000001100000 G
#25800000
0!
0'
0+
00
03
0;
#25900000
1!
1'
1+
10
13
1;
b11011111 )
b11011111 B
b01101001 D
b01101001 -
b00000000000000010000000001100000 :
b0000000001100000 I
b00000000001100001 G
#26000000
0!
0'
0+
00
03
0;
#26100000
1!
1'
1+
10
13
1;
b01101010 )
b01101010 B
b11011111 D
b11011111 -
b00000000000000010000000001100001 :
b0000000001100001 I
b00000000001100010 G
#26200000
0!
0'
0+
00
03
0;
#26300000
1!
1'
1+
10
13
1;
b11110000 )
b11110000 B
b01101010 D
b01101010 -
b00000000000000010000000001100010 :
b0000000001100010 I
b00000000001100011 G
#26400000
0!
0'
0+
00
03
0;
#26500000
1!
1'
1+
10
13
1;
b01011000 )
b01011000 B
b11110000 D
b11110000 -
b00000000000000010000000001100011 :
b0000000001100011 I
b00000000001100100 G
#26600000
0!
0'
0+
00
03
0;
#26700000
1!
1'
1+
10
13
1;
b01100001 )
b01100001 B
b01011000 D
b01011000 -
b00000000000000010000000001100100 :
b0000000001100100 I
b00000000001100101 G
#26800000
0!
0'
0+
00
03
0;
#26900000
1!
1'
1+
10
13
1;
b11110101 )
b11110101 B
b01100001 D
b01100001 -
b00000000000000010000000001100101 :
b0000000001100101 I
b00000000001100110 G
#27000000
0!
0'
0+
00
03
0;
#27100000
1!
1'
1+
10
13
1;
b11101100 )
b11101100 B
b11110101 D
b11110101 -
b00000000000000010000000001100110 :
b0000000001100110 I
b00000000001100111 G
#27200000
0!
0'
0+
00
03
0;
#27300000
1!
1'
1+
10
13
1;
b10100110 )
b10100110 B
b11101100 D
b11101100 -
b00000000000000010000000001100111 :
b0000000001100111 I
b00000000001101000 G
#27400000
0!
0'
0+
00
03
0;
#27500000
1!
1'
1+
10
13
1;
b10010001 )
b10010001 B
b10100110 D
b10100110 -
b00000000000000010000000001101000 :
b0000000001101000 I
b00000000001101001 G
#27600000
0!
0'
0+
00
03
0;
