ch7/section7.1/7.1.1/top_tb.vcd
$date
	Tue Aug 20 19:47:42 2024
$end

$version
	Synopsys VCS version O-2018.09-1_Full64
$end

$timescale
	1ps
$end

$comment Csum: 1 87d9864e4757d835 $end


$scope module top_tb $end
$var reg 1 ! clk $end
$var reg 1 " rst_n $end
$var reg 8 # rxd [7:0] $end
$var reg 1 $ rx_dv $end
$var wire 8 % txd [7:0] $end
$var wire 1 & tx_en $end

$scope begin unnamed$$_vcs_4 $end
$upscope $end


$scope begin unnamed$$_vcs_0 $end
$upscope $end


$scope begin unnamed$$_vcs_1 $end
$upscope $end


$scope begin unnamed$$_vcs_2 $end
$upscope $end


$scope begin unnamed$$_vcs_3 $end
$upscope $end


$scope module input_if $end
$var wire 1 ' clk $end
$var wire 1 ( rst_n $end
$var reg 8 ) data [7:0] $end
$var reg 1 * valid $end
$upscope $end


$scope module output_if $end
$var wire 1 + clk $end
$var wire 1 , rst_n $end
$var reg 8 - data [7:0] $end
$var reg 1 . valid $end
$upscope $end


$scope module b_if $end
$var wire 1 / clk $end
$var wire 1 0 rst_n $end
$var reg 1 1 bus_cmd_valid $end
$var reg 1 2 bus_op $end
$var reg 16 3 bus_addr [15:0] $end
$var reg 16 4 bus_wr_data [15:0] $end
$var reg 16 5 bus_rd_data [15:0] $end
$upscope $end


$scope module my_dut $end
$var wire 1 6 clk $end
$var wire 1 7 rst_n $end
$var wire 1 8 bus_cmd_valid $end
$var wire 1 9 bus_op $end
$var wire 16 : bus_addr [15:0] $end
$var wire 16 ; bus_wr_data [15:0] $end
$var reg 16 < bus_rd_data [15:0] $end
$var wire 8 = rxd [7:0] $end
$var wire 1 > rx_dv $end
$var reg 8 ? txd [7:0] $end
$var reg 1 @ tx_en $end
$var reg 1 A invert $end
$upscope $end

$upscope $end

$enddefinitions $end

#0
$dumpvars
0!
0"
x$
z&
bxxxxxxxx #
bzzzzzzzz %
b00000000 )
bxxxxxxxx -
bxxxxxxxxxxxxxxxx 5
b0000000000000000 4
b0000000000000000 3
xA
x@
bxxxxxxxxxxxxxxxx <
bxxxxxxxx ?
0'
0+
0/
06
0(
0,
00
07
b0000000000000000 :
b0000000000000000 ;
b00000000 =
08
09
0>
0*
x.
01
02
$end
#100000
1!
1'
1+
1/
16
b00000000 ?
b00000000 -
0@
0.
0A
b0000000000000000 <
b0000000000000000 5
#200000
0!
0'
0+
0/
06
#300000
1!
1'
1+
1/
16
#400000
0!
0'
0+
0/
06
#500000
1!
1'
1+
1/
16
#600000
0!
0'
0+
0/
06
#700000
1!
1'
1+
1/
16
#800000
0!
0'
0+
0/
06
#900000
1!
1'
1+
1/
16
#1000000
1"
1(
1,
10
17
0!
0'
0+
0/
06
#1100000
1!
1'
1+
1/
16
#1200000
0!
0'
0+
0/
06
#1300000
1!
1'
1+
1/
16
b0000000000001001 3
b0000000000001001 :
11
18
#1400000
0!
0'
0+
0/
06
#1500000
1!
1'
1+
1/
16
01
08
b0000000000000000 3
b0000000000000000 :
#1600000
0!
0'
0+
0/
06
#1700000
1!
1'
1+
1/
16
#1800000
0!
0'
0+
0/
06
#1900000
1!
1'
1+
1/
16
b0000000000001001 3
b0000000000001001 :
11
18
12
19
b0000000000000001 4
b0000000000000001 ;
#2000000
0!
0'
0+
0/
06
#2100000
1!
1'
1+
1/
16
01
08
02
09
b0000000000000000 3
b0000000000000000 :
b0000000000000000 4
b0000000000000000 ;
1A
#2200000
0!
0'
0+
0/
06
#2300000
1!
1'
1+
1/
16
b11111111 ?
b11111111 -
#2400000
0!
0'
0+
0/
06
#2500000
1!
1'
1+
1/
16
b0000000000001001 3
b0000000000001001 :
11
18
#2600000
0!
0'
0+
0/
06
#2700000
1!
1'
1+
1/
16
01
08
b0000000000000000 3
b0000000000000000 :
b0000000000000001 <
b0000000000000001 5
#2800000
0!
0'
0+
0/
06
#2900000
1!
1'
1+
1/
16
#3000000
0!
0'
0+
0/
06
#3100000
1!
1'
1+
1/
16
b0000000000001001 3
b0000000000001001 :
11
18
12
19
#3200000
0!
0'
0+
0/
06
#3300000
1!
1'
1+
1/
16
01
08
02
09
b0000000000000000 3
b0000000000000000 :
0A
#3400000
0!
0'
0+
0/
06
#3500000
1!
1'
1+
1/
16
b00000000 ?
b00000000 -
#3600000
0!
0'
0+
0/
06
#3700000
1!
1'
1+
1/
16
b0000000000001001 3
b0000000000001001 :
11
18
#3800000
0!
0'
0+
0/
06
#3900000
1!
1'
1+
1/
16
01
08
b0000000000000000 3
b0000000000000000 :
b0000000000000000 <
b0000000000000000 5
#4000000
0!
0'
0+
0/
06
#4100000
1!
1'
1+
1/
16
#4200000
0!
0'
0+
0/
06
#4300000
1!
1'
1+
1/
16
#4400000
0!
0'
0+
0/
06
#4500000
1!
1'
1+
1/
16
#4600000
0!
0'
0+
0/
06
#4700000
1!
1'
1+
1/
16
#4800000
0!
0'
0+
0/
06
#4900000
1!
1'
1+
1/
16
1*
1>
b01011010 )
b01011010 =
#5000000
0!
0'
0+
0/
06
#5100000
1!
1'
1+
1/
16
b00010010 )
b00010010 =
b01011010 ?
b01011010 -
1@
1.
#5200000
0!
0'
0+
0/
06
#5300000
1!
1'
1+
1/
16
b00000001 )
b00000001 =
b00010010 ?
b00010010 -
#5400000
0!
0'
0+
0/
06
#5500000
1!
1'
1+
1/
16
b01011001 )
b01011001 =
b00000001 ?
b00000001 -
#5600000
0!
0'
0+
0/
06
#5700000
1!
1'
1+
1/
16
b10110110 )
b10110110 =
b01011001 ?
b01011001 -
#5800000
0!
0'
0+
0/
06
#5900000
1!
1'
1+
1/
16
b00000110 )
b00000110 =
b10110110 ?
b10110110 -
#6000000
0!
0'
0+
0/
06
#6100000
1!
1'
1+
1/
16
b11010010 )
b11010010 =
b00000110 ?
b00000110 -
#6200000
0!
0'
0+
0/
06
#6300000
1!
1'
1+
1/
16
b10010110 )
b10010110 =
b11010010 ?
b11010010 -
#6400000
0!
0'
0+
0/
06
#6500000
1!
1'
1+
1/
16
b11111100 )
b11111100 =
b10010110 ?
b10010110 -
#6600000
0!
0'
0+
0/
06
#6700000
1!
1'
1+
1/
16
b01110100 )
b01110100 =
b11111100 ?
b11111100 -
#6800000
0!
0'
0+
0/
06
#6900000
1!
1'
1+
1/
16
b11000011 )
b11000011 =
b01110100 ?
b01110100 -
#7000000
0!
0'
0+
0/
06
#7100000
1!
1'
1+
1/
16
b00010011 )
b00010011 =
b11000011 ?
b11000011 -
#7200000
0!
0'
0+
0/
06
#7300000
1!
1'
1+
1/
16
b01001101 )
b01001101 =
b00010011 ?
b00010011 -
#7400000
0!
0'
0+
0/
06
#7500000
1!
1'
1+
1/
16
b00111001 )
b00111001 =
b01001101 ?
b01001101 -
#7600000
0!
0'
0+
0/
06
#7700000
1!
1'
1+
1/
16
b10000011 )
b10000011 =
b00111001 ?
b00111001 -
#7800000
0!
0'
0+
0/
06
#7900000
1!
1'
1+
1/
16
b01000110 )
b01000110 =
b10000011 ?
b10000011 -
#8000000
0!
0'
0+
0/
06
#8100000
1!
1'
1+
1/
16
b00111111 )
b00111111 =
b01000110 ?
b01000110 -
#8200000
0!
0'
0+
0/
06
#8300000
1!
1'
1+
1/
16
b00000111 )
b00000111 =
b00111111 ?
b00111111 -
#8400000
0!
0'
0+
0/
06
#8500000
1!
1'
1+
1/
16
b10100101 )
b10100101 =
b00000111 ?
b00000111 -
#8600000
0!
0'
0+
0/
06
#8700000
1!
1'
1+
1/
16
b00111001 )
b00111001 =
b10100101 ?
b10100101 -
#8800000
0!
0'
0+
0/
06
#8900000
1!
1'
1+
1/
16
b00011001 )
b00011001 =
b00111001 ?
b00111001 -
#9000000
0!
0'
0+
0/
06
#9100000
1!
1'
1+
1/
16
b11110101 )
b11110101 =
b00011001 ?
b00011001 -
#9200000
0!
0'
0+
0/
06
#9300000
1!
1'
1+
1/
16
b01101011 )
b01101011 =
b11110101 ?
b11110101 -
#9400000
0!
0'
0+
0/
06
#9500000
1!
1'
1+
1/
16
b00011101 )
b00011101 =
b01101011 ?
b01101011 -
#9600000
0!
0'
0+
0/
06
#9700000
1!
1'
1+
1/
16
b00001101 )
b00001101 =
b00011101 ?
b00011101 -
#9800000
0!
0'
0+
0/
06
#9900000
1!
1'
1+
1/
16
b10010101 )
b10010101 =
b00001101 ?
b00001101 -
#10000000
0!
0'
0+
0/
06
#10100000
1!
1'
1+
1/
16
b11000000 )
b11000000 =
b10010101 ?
b10010101 -
#10200000
0!
0'
0+
0/
06
#10300000
1!
1'
1+
1/
16
b00011110 )
b00011110 =
b11000000 ?
b11000000 -
#10400000
0!
0'
0+
0/
06
#10500000
1!
1'
1+
1/
16
b11000011 )
b11000011 =
b00011110 ?
b00011110 -
#10600000
0!
0'
0+
0/
06
#10700000
1!
1'
1+
1/
16
b00101010 )
b00101010 =
b11000011 ?
b11000011 -
#10800000
0!
0'
0+
0/
06
#10900000
1!
1'
1+
1/
16
b10000110 )
b10000110 =
b00101010 ?
b00101010 -
#11000000
0!
0'
0+
0/
06
#11100000
1!
1'
1+
1/
16
b00001111 )
b00001111 =
b10000110 ?
b10000110 -
#11200000
0!
0'
0+
0/
06
#11300000
1!
1'
1+
1/
16
b00011000 )
b00011000 =
b00001111 ?
b00001111 -
#11400000
0!
0'
0+
0/
06
#11500000
1!
1'
1+
1/
16
b11101111 )
b11101111 =
b00011000 ?
b00011000 -
#11600000
0!
0'
0+
0/
06
#11700000
1!
1'
1+
1/
16
b10011101 )
b10011101 =
b11101111 ?
b11101111 -
#11800000
0!
0'
0+
0/
06
#11900000
1!
1'
1+
1/
16
b10010000 )
b10010000 =
b10011101 ?
b10011101 -
#12000000
0!
0'
0+
0/
06
#12100000
1!
1'
1+
1/
16
b10001000 )
b10001000 =
b10010000 ?
b10010000 -
#12200000
0!
0'
0+
0/
06
#12300000
1!
1'
1+
1/
16
b00001011 )
b00001011 =
b10001000 ?
b10001000 -
#12400000
0!
0'
0+
0/
06
#12500000
1!
1'
1+
1/
16
b00010110 )
b00010110 =
b00001011 ?
b00001011 -
#12600000
0!
0'
0+
0/
06
#12700000
1!
1'
1+
1/
16
b01101100 )
b01101100 =
b00010110 ?
b00010110 -
#12800000
0!
0'
0+
0/
06
#12900000
1!
1'
1+
1/
16
b01110101 )
b01110101 =
b01101100 ?
b01101100 -
#13000000
0!
0'
0+
0/
06
#13100000
1!
1'
1+
1/
16
b11110001 )
b11110001 =
b01110101 ?
b01110101 -
#13200000
0!
0'
0+
0/
06
#13300000
1!
1'
1+
1/
16
b11000110 )
b11000110 =
b11110001 ?
b11110001 -
#13400000
0!
0'
0+
0/
06
#13500000
1!
1'
1+
1/
16
b10100111 )
b10100111 =
b11000110 ?
b11000110 -
#13600000
0!
0'
0+
0/
06
#13700000
1!
1'
1+
1/
16
b01010000 )
b01010000 =
b10100111 ?
b10100111 -
#13800000
0!
0'
0+
0/
06
#13900000
1!
1'
1+
1/
16
b11110111 )
b11110111 =
b01010000 ?
b01010000 -
#14000000
0!
0'
0+
0/
06
#14100000
1!
1'
1+
1/
16
b11111011 )
b11111011 =
b11110111 ?
b11110111 -
#14200000
0!
0'
0+
0/
06
#14300000
1!
1'
1+
1/
16
b00110101 )
b00110101 =
b11111011 ?
b11111011 -
#14400000
0!
0'
0+
0/
06
#14500000
1!
1'
1+
1/
16
b01100100 )
b01100100 =
b00110101 ?
b00110101 -
#14600000
0!
0'
0+
0/
06
#14700000
1!
1'
1+
1/
16
b11010101 )
b11010101 =
b01100100 ?
b01100100 -
#14800000
0!
0'
0+
0/
06
#14900000
1!
1'
1+
1/
16
b01101010 )
b01101010 =
b11010101 ?
b11010101 -
#15000000
0!
0'
0+
0/
06
#15100000
1!
1'
1+
1/
16
b10001111 )
b10001111 =
b01101010 ?
b01101010 -
#15200000
0!
0'
0+
0/
06
#15300000
1!
1'
1+
1/
16
b01000100 )
b01000100 =
b10001111 ?
b10001111 -
#15400000
0!
0'
0+
0/
06
#15500000
1!
1'
1+
1/
16
b11110110 )
b11110110 =
b01000100 ?
b01000100 -
#15600000
0!
0'
0+
0/
06
#15700000
1!
1'
1+
1/
16
b00000111 )
b00000111 =
b11110110 ?
b11110110 -
#15800000
0!
0'
0+
0/
06
#15900000
1!
1'
1+
1/
16
b10010111 )
b10010111 =
b00000111 ?
b00000111 -
#16000000
0!
0'
0+
0/
06
#16100000
1!
1'
1+
1/
16
b10111010 )
b10111010 =
b10010111 ?
b10010111 -
#16200000
0!
0'
0+
0/
06
#16300000
1!
1'
1+
1/
16
b00100001 )
b00100001 =
b10111010 ?
b10111010 -
#16400000
0!
0'
0+
0/
06
#16500000
1!
1'
1+
1/
16
b10010110 )
b10010110 =
b00100001 ?
b00100001 -
#16600000
0!
0'
0+
0/
06
#16700000
1!
1'
1+
1/
16
b01111111 )
b01111111 =
b10010110 ?
b10010110 -
#16800000
0!
0'
0+
0/
06
#16900000
1!
1'
1+
1/
16
b01100011 )
b01100011 =
b01111111 ?
b01111111 -
#17000000
0!
0'
0+
0/
06
#17100000
1!
1'
1+
1/
16
b10101100 )
b10101100 =
b01100011 ?
b01100011 -
#17200000
0!
0'
0+
0/
06
#17300000
1!
1'
1+
1/
16
b11011000 )
b11011000 =
b10101100 ?
b10101100 -
#17400000
0!
0'
0+
0/
06
#17500000
1!
1'
1+
1/
16
b11111001 )
b11111001 =
b11011000 ?
b11011000 -
#17600000
0!
0'
0+
0/
06
#17700000
1!
1'
1+
1/
16
b10101100 )
b10101100 =
b11111001 ?
b11111001 -
#17800000
0!
0'
0+
0/
06
#17900000
1!
1'
1+
1/
16
b01001110 )
b01001110 =
b10101100 ?
b10101100 -
#18000000
0!
0'
0+
0/
06
#18100000
1!
1'
1+
1/
16
b00101000 )
b00101000 =
b01001110 ?
b01001110 -
#18200000
0!
0'
0+
0/
06
#18300000
1!
1'
1+
1/
16
b11110000 )
b11110000 =
b00101000 ?
b00101000 -
#18400000
0!
0'
0+
0/
06
#18500000
1!
1'
1+
1/
16
b01100100 )
b01100100 =
b11110000 ?
b11110000 -
#18600000
0!
0'
0+
0/
06
#18700000
1!
1'
1+
1/
16
b01001000 )
b01001000 =
b01100100 ?
b01100100 -
#18800000
0!
0'
0+
0/
06
#18900000
1!
1'
1+
1/
16
b01110110 )
b01110110 =
b01001000 ?
b01001000 -
#19000000
0!
0'
0+
0/
06
#19100000
1!
1'
1+
1/
16
b10011101 )
b10011101 =
b01110110 ?
b01110110 -
#19200000
0!
0'
0+
0/
06
#19300000
1!
1'
1+
1/
16
b00111011 )
b00111011 =
b10011101 ?
b10011101 -
#19400000
0!
0'
0+
0/
06
#19500000
1!
1'
1+
1/
16
b11110000 )
b11110000 =
b00111011 ?
b00111011 -
#19600000
0!
0'
0+
0/
06
#19700000
1!
1'
1+
1/
16
b00011110 )
b00011110 =
b11110000 ?
b11110000 -
#19800000
0!
0'
0+
0/
06
#19900000
1!
1'
1+
1/
16
b01100100 )
b01100100 =
b00011110 ?
b00011110 -
#20000000
0!
0'
0+
0/
06
#20100000
1!
1'
1+
1/
16
b11100110 )
b11100110 =
b01100100 ?
b01100100 -
#20200000
0!
0'
0+
0/
06
#20300000
1!
1'
1+
1/
16
b10111110 )
b10111110 =
b11100110 ?
b11100110 -
#20400000
0!
0'
0+
0/
06
#20500000
1!
1'
1+
1/
16
b00010011 )
b00010011 =
b10111110 ?
b10111110 -
#20600000
0!
0'
0+
0/
06
#20700000
1!
1'
1+
1/
16
b10101110 )
b10101110 =
b00010011 ?
b00010011 -
#20800000
0!
0'
0+
0/
06
#20900000
1!
1'
1+
1/
16
b01101001 )
b01101001 =
b10101110 ?
b10101110 -
#21000000
0!
0'
0+
0/
06
#21100000
1!
1'
1+
1/
16
b10000001 )
b10000001 =
b01101001 ?
b01101001 -
#21200000
0!
0'
0+
0/
06
#21300000
1!
1'
1+
1/
16
b01101100 )
b01101100 =
b10000001 ?
b10000001 -
#21400000
0!
0'
0+
0/
06
#21500000
1!
1'
1+
1/
16
b11000001 )
b11000001 =
b01101100 ?
b01101100 -
#21600000
0!
0'
0+
0/
06
#21700000
1!
1'
1+
1/
16
b10110100 )
b10110100 =
b11000001 ?
b11000001 -
#21800000
0!
0'
0+
0/
06
#21900000
1!
1'
1+
1/
16
b00111100 )
b00111100 =
b10110100 ?
b10110100 -
#22000000
0!
0'
0+
0/
06
#22100000
1!
1'
1+
1/
16
b11011111 )
b11011111 =
b00111100 ?
b00111100 -
#22200000
0!
0'
0+
0/
06
#22300000
1!
1'
1+
1/
16
b10100010 )
b10100010 =
b11011111 ?
b11011111 -
#22400000
0!
0'
0+
0/
06
#22500000
1!
1'
1+
1/
16
b00110011 )
b00110011 =
b10100010 ?
b10100010 -
#22600000
0!
0'
0+
0/
06
#22700000
1!
1'
1+
1/
16
b01101111 )
b01101111 =
b00110011 ?
b00110011 -
#22800000
0!
0'
0+
0/
06
#22900000
1!
1'
1+
1/
16
b01000011 )
b01000011 =
b01101111 ?
b01101111 -
#23000000
0!
0'
0+
0/
06
#23100000
1!
1'
1+
1/
16
b00101110 )
b00101110 =
b01000011 ?
b01000011 -
#23200000
0!
0'
0+
0/
06
#23300000
1!
1'
1+
1/
16
b00011111 )
b00011111 =
b00101110 ?
b00101110 -
#23400000
0!
0'
0+
0/
06
#23500000
1!
1'
1+
1/
16
b01000100 )
b01000100 =
b00011111 ?
b00011111 -
#23600000
0!
0'
0+
0/
06
#23700000
1!
1'
1+
1/
16
b11010101 )
b11010101 =
b01000100 ?
b01000100 -
#23800000
0!
0'
0+
0/
06
#23900000
1!
1'
1+
1/
16
b00101101 )
b00101101 =
b11010101 ?
b11010101 -
#24000000
0!
0'
0+
0/
06
#24100000
1!
1'
1+
1/
16
b00100110 )
b00100110 =
b00101101 ?
b00101101 -
#24200000
0!
0'
0+
0/
06
#24300000
1!
1'
1+
1/
16
b00010100 )
b00010100 =
b00100110 ?
b00100110 -
#24400000
0!
0'
0+
0/
06
#24500000
1!
1'
1+
1/
16
b01101001 )
b01101001 =
b00010100 ?
b00010100 -
#24600000
0!
0'
0+
0/
06
#24700000
1!
1'
1+
1/
16
b11011111 )
b11011111 =
b01101001 ?
b01101001 -
#24800000
0!
0'
0+
0/
06
#24900000
1!
1'
1+
1/
16
b01101010 )
b01101010 =
b11011111 ?
b11011111 -
#25000000
0!
0'
0+
0/
06
#25100000
1!
1'
1+
1/
16
b11110000 )
b11110000 =
b01101010 ?
b01101010 -
#25200000
0!
0'
0+
0/
06
#25300000
1!
1'
1+
1/
16
b01011000 )
b01011000 =
b11110000 ?
b11110000 -
#25400000
0!
0'
0+
0/
06
#25500000
1!
1'
1+
1/
16
b01100001 )
b01100001 =
b01011000 ?
b01011000 -
#25600000
0!
0'
0+
0/
06
#25700000
1!
1'
1+
1/
16
b11110101 )
b11110101 =
b01100001 ?
b01100001 -
#25800000
0!
0'
0+
0/
06
#25900000
1!
1'
1+
1/
16
b11101100 )
b11101100 =
b11110101 ?
b11110101 -
#26000000
0!
0'
0+
0/
06
#26100000
1!
1'
1+
1/
16
b10100110 )
b10100110 =
b11101100 ?
b11101100 -
#26200000
0!
0'
0+
0/
06
#26300000
1!
1'
1+
1/
16
b10010001 )
b10010001 =
b10100110 ?
b10100110 -
#26400000
0!
0'
0+
0/
06
#26500000
1!
1'
1+
1/
16
b11000100 )
b11000100 =
b10010001 ?
b10010001 -
#26600000
0!
0'
0+
0/
06
#26700000
1!
1'
1+
1/
16
b11011100 )
b11011100 =
b11000100 ?
b11000100 -
#26800000
0!
0'
0+
0/
06
#26900000
1!
1'
1+
1/
16
b01101100 )
b01101100 =
b11011100 ?
b11011100 -
#27000000
0!
0'
0+
0/
06
#27100000
1!
1'
1+
1/
16
b00100100 )
b00100100 =
b01101100 ?
b01101100 -
#27200000
0!
0'
0+
0/
06
#27300000
1!
1'
1+
1/
16
b10001101 )
b10001101 =
b00100100 ?
b00100100 -
#27400000
0!
0'
0+
0/
06
#27500000
1!
1'
1+
1/
16
b11010011 )
b11010011 =
b10001101 ?
b10001101 -
#27600000
0!
0'
0+
0/
06
#27700000
1!
1'
1+
1/
16
b11101001 )
b11101001 =
b11010011 ?
b11010011 -
#27800000
0!
0'
0+
0/
06
#27900000
1!
1'
1+
1/
16
b00100011 )
b00100011 =
b11101001 ?
b11101001 -
#28000000
0!
0'
0+
0/
06
#28100000
1!
1'
1+
1/
16
b10000001 )
b10000001 =
b00100011 ?
b00100011 -
#28200000
0!
0'
0+
0/
06
#28300000
1!
1'
1+
1/
16
b10110111 )
b10110111 =
b10000001 ?
b10000001 -
#28400000
0!
0'
0+
0/
06
#28500000
1!
1'
1+
1/
16
b10110100 )
b10110100 =
b10110111 ?
b10110111 -
#28600000
0!
0'
0+
0/
06
#28700000
1!
1'
1+
1/
16
b10111011 )
b10111011 =
b10110100 ?
b10110100 -
#28800000
0!
0'
0+
0/
06
#28900000
1!
1'
1+
1/
16
b00100100 )
b00100100 =
b10111011 ?
b10111011 -
#29000000
0!
0'
0+
0/
06
#29100000
1!
1'
1+
1/
16
b01100111 )
b01100111 =
b00100100 ?
b00100100 -
#29200000
0!
0'
0+
0/
06
#29300000
1!
1'
1+
1/
16
b00000011 )
b00000011 =
b01100111 ?
b01100111 -
#29400000
0!
0'
0+
0/
06
#29500000
1!
1'
1+
1/
16
b00010011 )
b00010011 =
b00000011 ?
b00000011 -
#29600000
0!
0'
0+
0/
06
#29700000
1!
1'
1+
1/
16
b10111011 )
b10111011 =
b00010011 ?
b00010011 -
#29800000
0!
0'
0+
0/
06
#29900000
1!
1'
1+
1/
16
b01011101 )
b01011101 =
b10111011 ?
b10111011 -
#30000000
0!
0'
0+
0/
06
#30100000
1!
1'
1+
1/
16
b10000110 )
b10000110 =
b01011101 ?
b01011101 -
#30200000
0!
0'
0+
0/
06
#30300000
1!
1'
1+
1/
16
b11001110 )
b11001110 =
b10000110 ?
b10000110 -
#30400000
0!
0'
0+
0/
06
#30500000
1!
1'
1+
1/
16
b11000111 )
b11000111 =
b11001110 ?
b11001110 -
#30600000
0!
0'
0+
0/
06
#30700000
1!
1'
1+
1/
16
b01010110 )
b01010110 =
b11000111 ?
b11000111 -
#30800000
0!
0'
0+
0/
06
#30900000
1!
1'
1+
1/
16
b10011011 )
b10011011 =
b01010110 ?
b01010110 -
#31000000
0!
0'
0+
0/
06
#31100000
1!
1'
1+
1/
16
b00110001 )
b00110001 =
b10011011 ?
b10011011 -
#31200000
0!
0'
0+
0/
06
#31300000
1!
1'
1+
1/
16
b01111011 )
b01111011 =
b00110001 ?
b00110001 -
#31400000
0!
0'
0+
0/
06
#31500000
1!
1'
1+
1/
16
b10001010 )
b10001010 =
b01111011 ?
b01111011 -
#31600000
0!
0'
0+
0/
06
#31700000
1!
1'
1+
1/
16
b10111001 )
b10111001 =
b10001010 ?
b10001010 -
#31800000
0!
0'
0+
0/
06
#31900000
1!
1'
1+
1/
16
b01101010 )
b01101010 =
b10111001 ?
b10111001 -
#32000000
0!
0'
0+
0/
06
#32100000
1!
1'
1+
1/
16
b10011000 )
b10011000 =
b01101010 ?
b01101010 -
#32200000
0!
0'
0+
0/
06
#32300000
1!
1'
1+
1/
16
b10001100 )
b10001100 =
b10011000 ?
b10011000 -
#32400000
0!
0'
0+
0/
06
#32500000
1!
1'
1+
1/
16
b11111100 )
b11111100 =
b10001100 ?
b10001100 -
#32600000
0!
0'
0+
0/
06
#32700000
1!
1'
1+
1/
16
b11001100 )
b11001100 =
b11111100 ?
b11111100 -
#32800000
0!
0'
0+
0/
06
#32900000
1!
1'
1+
1/
16
b00011000 )
b00011000 =
b11001100 ?
b11001100 -
#33000000
0!
0'
0+
0/
06
#33100000
1!
1'
1+
1/
16
b10000001 )
b10000001 =
b00011000 ?
b00011000 -
#33200000
0!
0'
0+
0/
06
#33300000
1!
1'
1+
1/
16
b11100101 )
b11100101 =
b10000001 ?
b10000001 -
#33400000
0!
0'
0+
0/
06
#33500000
1!
1'
1+
1/
16
b11001001 )
b11001001 =
b11100101 ?
b11100101 -
#33600000
0!
0'
0+
0/
06
#33700000
1!
1'
1+
1/
16
b00011011 )
b00011011 =
b11001001 ?
b11001001 -
#33800000
0!
0'
0+
0/
06
#33900000
1!
1'
1+
1/
16
b11110110 )
b11110110 =
b00011011 ?
b00011011 -
#34000000
0!
0'
0+
0/
06
#34100000
1!
1'
1+
1/
16
b00101101 )
b00101101 =
b11110110 ?
b11110110 -
#34200000
0!
0'
0+
0/
06
#34300000
1!
1'
1+
1/
16
b01101001 )
b01101001 =
b00101101 ?
b00101101 -
#34400000
0!
0'
0+
0/
06
#34500000
1!
1'
1+
1/
16
b10001111 )
b10001111 =
b01101001 ?
b01101001 -
#34600000
0!
0'
0+
0/
06
#34700000
1!
1'
1+
1/
16
b00000001 )
b00000001 =
b10001111 ?
b10001111 -
#34800000
0!
0'
0+
0/
06
#34900000
1!
1'
1+
1/
16
b01011111 )
b01011111 =
b00000001 ?
b00000001 -
#35000000
0!
0'
0+
0/
06
#35100000
1!
1'
1+
1/
16
b11111111 )
b11111111 =
b01011111 ?
b01011111 -
#35200000
0!
0'
0+
0/
06
#35300000
1!
1'
1+
1/
16
b11000011 )
b11000011 =
b11111111 ?
b11111111 -
#35400000
0!
0'
0+
0/
06
#35500000
1!
1'
1+
1/
16
b01111100 )
b01111100 =
b11000011 ?
b11000011 -
#35600000
0!
0'
0+
0/
06
#35700000
1!
1'
1+
1/
16
b10101100 )
b10101100 =
b01111100 ?
b01111100 -
#35800000
0!
0'
0+
0/
06
#35900000
1!
1'
1+
1/
16
b01000100 )
b01000100 =
b10101100 ?
b10101100 -
#36000000
0!
0'
0+
0/
06
#36100000
1!
1'
1+
1/
16
b11000100 )
b11000100 =
b01000100 ?
b01000100 -
#36200000
0!
0'
0+
0/
06
#36300000
1!
1'
1+
1/
16
b11011010 )
b11011010 =
b11000100 ?
b11000100 -
#36400000
0!
0'
0+
0/
06
#36500000
1!
1'
1+
1/
16
b00100001 )
b00100001 =
b11011010 ?
b11011010 -
#36600000
0!
0'
0+
0/
06
#36700000
1!
1'
1+
1/
16
b11010110 )
b11010110 =
b00100001 ?
b00100001 -
#36800000
0!
0'
0+
0/
06
#36900000
1!
1'
1+
1/
16
b01100000 )
b01100000 =
b11010110 ?
b11010110 -
#37000000
0!
0'
0+
0/
06
#37100000
1!
1'
1+
1/
16
b11100100 )
b11100100 =
b01100000 ?
b01100000 -
#37200000
0!
0'
0+
0/
06
#37300000
1!
1'
1+
1/
16
b01101110 )
b01101110 =
b11100100 ?
b11100100 -
#37400000
0!
0'
0+
0/
06
#37500000
1!
1'
1+
1/
16
b01001111 )
b01001111 =
b01101110 ?
b01101110 -
#37600000
0!
0'
0+
0/
06
#37700000
1!
1'
1+
1/
16
b10111101 )
b10111101 =
b01001111 ?
b01001111 -
#37800000
0!
0'
0+
0/
06
#37900000
1!
1'
1+
1/
16
b00010101 )
b00010101 =
b10111101 ?
b10111101 -
#38000000
0!
0'
0+
0/
06
#38100000
1!
1'
1+
1/
16
b01111111 )
b01111111 =
b00010101 ?
b00010101 -
#38200000
0!
0'
0+
0/
06
#38300000
1!
1'
1+
1/
16
b10010111 )
b10010111 =
b01111111 ?
b01111111 -
#38400000
0!
0'
0+
0/
06
#38500000
1!
1'
1+
1/
16
b01110110 )
b01110110 =
b10010111 ?
b10010111 -
#38600000
0!
0'
0+
0/
06
#38700000
1!
1'
1+
1/
16
b00000010 )
b00000010 =
b01110110 ?
b01110110 -
#38800000
0!
0'
0+
0/
06
#38900000
1!
1'
1+
1/
16
b01111111 )
b01111111 =
b00000010 ?
b00000010 -
#39000000
0!
0'
0+
0/
06
#39100000
1!
1'
1+
1/
16
b11011101 )
b11011101 =
b01111111 ?
b01111111 -
#39200000
0!
0'
0+
0/
06
#39300000
1!
1'
1+
1/
16
b11010010 )
b11010010 =
b11011101 ?
b11011101 -
#39400000
0!
0'
0+
0/
06
#39500000
1!
1'
1+
1/
16
b11000010 )
b11000010 =
b11010010 ?
b11010010 -
#39600000
0!
0'
0+
0/
06
#39700000
1!
1'
1+
1/
16
b10100101 )
b10100101 =
b11000010 ?
b11000010 -
#39800000
0!
0'
0+
0/
06
#39900000
1!
1'
1+
1/
16
b00100010 )
b00100010 =
b10100101 ?
b10100101 -
#40000000
0!
0'
0+
0/
06
#40100000
1!
1'
1+
1/
16
b11010110 )
b11010110 =
b00100010 ?
b00100010 -
#40200000
0!
0'
0+
0/
06
#40300000
1!
1'
1+
1/
16
b11100010 )
b11100010 =
b11010110 ?
b11010110 -
#40400000
0!
0'
0+
0/
06
#40500000
1!
1'
1+
1/
16
b01001110 )
b01001110 =
b11100010 ?
b11100010 -
#40600000
0!
0'
0+
0/
06
#40700000
1!
1'
1+
1/
16
b00000011 )
b00000011 =
b01001110 ?
b01001110 -
#40800000
0!
0'
0+
0/
06
#40900000
1!
1'
1+
1/
16
b01110111 )
b01110111 =
b00000011 ?
b00000011 -
#41000000
0!
0'
0+
0/
06
#41100000
1!
1'
1+
1/
16
b00000110 )
b00000110 =
b01110111 ?
b01110111 -
#41200000
0!
0'
0+
0/
06
#41300000
1!
1'
1+
1/
16
b11101100 )
b11101100 =
b00000110 ?
b00000110 -
#41400000
0!
0'
0+
0/
06
#41500000
1!
1'
1+
1/
16
b10110101 )
b10110101 =
b11101100 ?
b11101100 -
#41600000
0!
0'
0+
0/
06
#41700000
1!
1'
1+
1/
16
b00010001 )
b00010001 =
b10110101 ?
b10110101 -
#41800000
0!
0'
0+
0/
06
#41900000
1!
1'
1+
1/
16
b00101010 )
b00101010 =
b00010001 ?
b00010001 -
#42000000
0!
0'
0+
0/
06
#42100000
1!
1'
1+
1/
16
b00001100 )
b00001100 =
b00101010 ?
b00101010 -
#42200000
0!
0'
0+
0/
06
