ch7/section7.3/7.3.2/top_tb.vcd
$date
	Tue Aug 20 21:21:06 2024
$end

$version
	Synopsys VCS version O-2018.09-1_Full64
$end

$timescale
	1ps
$end

$comment Csum: 1 56495d55d3e093ec $end


$scope module top_tb $end
$var reg 1 ! clk $end
$var reg 1 " rst_n $end
$var reg 8 # rxd [7:0] $end
$var reg 1 $ rx_dv $end
$var wire 8 % txd [7:0] $end
$var wire 1 & tx_en $end

$scope begin unnamed$$_vcs_5 $end
$upscope $end


$scope begin unnamed$$_vcs_0 $end
$upscope $end


$scope begin unnamed$$_vcs_1 $end
$upscope $end


$scope begin unnamed$$_vcs_2 $end
$upscope $end


$scope begin unnamed$$_vcs_3 $end
$upscope $end


$scope begin unnamed$$_vcs_4 $end
$upscope $end


$scope module input_if $end
$var wire 1 ' clk $end
$var wire 1 ( rst_n $end
$var reg 8 ) data [7:0] $end
$var reg 1 * valid $end
$upscope $end


$scope module output_if $end
$var wire 1 + clk $end
$var wire 1 , rst_n $end
$var reg 8 - data [7:0] $end
$var reg 1 . valid $end
$upscope $end


$scope module b_if $end
$var wire 1 / clk $end
$var wire 1 0 rst_n $end
$var reg 1 1 bus_cmd_valid $end
$var reg 1 2 bus_op $end
$var reg 16 3 bus_addr [15:0] $end
$var reg 16 4 bus_wr_data [15:0] $end
$var reg 16 5 bus_rd_data [15:0] $end
$upscope $end


$scope module my_dut $end
$var reg 32 6 counter [31:0] $end
$var wire 1 7 clk $end
$var wire 1 8 rst_n $end
$var wire 1 9 bus_cmd_valid $end
$var wire 1 : bus_op $end
$var wire 16 ; bus_addr [15:0] $end
$var wire 16 < bus_wr_data [15:0] $end
$var reg 16 = bus_rd_data [15:0] $end
$var wire 8 > rxd [7:0] $end
$var wire 1 ? rx_dv $end
$var reg 8 @ txd [7:0] $end
$var reg 1 A tx_en $end
$var reg 1 B invert $end
$var wire 17 C counter_low_result [16:0] $end
$var wire 17 D counter_high_result [16:0] $end

$scope module low_adder $end
$var wire 16 E augend [15:0] $end
$var wire 16 F addend [15:0] $end
$var wire 17 C result [16:0] $end
$upscope $end


$scope module high_adder $end
$var wire 16 G augend [15:0] $end
$var wire 16 H addend [15:0] $end
$var wire 17 D result [16:0] $end
$upscope $end

$upscope $end

$upscope $end

$enddefinitions $end

#0
$dumpvars
0!
0"
x$
z&
bxxxxxxxx #
bzzzzzzzz %
b00000000 )
bxxxxxxxx -
bxxxxxxxxxxxxxxxx 5
b0000000000000000 4
b0000000000000000 3
xB
xA
b0000000000000001 F
bxxxxxxxxxxxxxxxx =
bxxxxxxxxxxxxxxxxxxxxxxxxxxxxxxxx 6
bxxxxxxxxxxxxxxxxx D
bxxxxxxxxxxxxxxxxx C
b0000000000000001 H
bxxxxxxxxxxxxxxxx G
bxxxxxxxxxxxxxxxx E
bxxxxxxxx @
0'
0+
0/
07
0(
0,
00
08
b0000000000000000 ;
b0000000000000000 <
b00000000 >
09
0:
0?
0*
x.
01
02
$end
#100000
1!
1'
1+
1/
17
b00000000 @
b00000000 -
0A
0.
bxxxxxxxxxxxxxxxx0000000000000000 6
b0000000000000000 E
b00000000000000001 C
b00000000000000000000000000000000 6
b0000000000000000 G
b00000000000000001 D
0B
b0000000000000000 =
b0000000000000000 5
#200000
0!
0'
0+
0/
07
#300000
1!
1'
1+
1/
17
#400000
0!
0'
0+
0/
07
#500000
1!
1'
1+
1/
17
#600000
0!
0'
0+
0/
07
#700000
1!
1'
1+
1/
17
#800000
0!
0'
0+
0/
07
#900000
1!
1'
1+
1/
17
#1000000
1"
1(
1,
10
18
0!
0'
0+
0/
07
b00000000000000001111111111111101 6
b1111111111111101 E
b01111111111111110 C
#1100000
1!
1'
1+
1/
17
#1200000
0!
0'
0+
0/
07
#1300000
1!
1'
1+
1/
17
b0000000000001001 3
b0000000000001001 ;
11
19
#1400000
0!
0'
0+
0/
07
#1500000
1!
1'
1+
1/
17
01
09
b0000000000000000 3
b0000000000000000 ;
#1600000
0!
0'
0+
0/
07
#1700000
1!
1'
1+
1/
17
#1800000
0!
0'
0+
0/
07
#1900000
1!
1'
1+
1/
17
b0000000000001001 3
b0000000000001001 ;
11
19
12
1:
b0000000000000001 4
b0000000000000001 <
#2000000
0!
0'
0+
0/
07
#2100000
1!
1'
1+
1/
17
01
09
02
0:
b0000000000000000 3
b0000000000000000 ;
b0000000000000000 4
b0000000000000000 <
1B
#2200000
0!
0'
0+
0/
07
#2300000
1!
1'
1+
1/
17
b11111111 @
b11111111 -
#2400000
0!
0'
0+
0/
07
#2500000
1!
1'
1+
1/
17
b0000000000001001 3
b0000000000001001 ;
11
19
#2600000
0!
0'
0+
0/
07
#2700000
1!
1'
1+
1/
17
01
09
b0000000000000000 3
b0000000000000000 ;
b0000000000000001 =
b0000000000000001 5
#2800000
0!
0'
0+
0/
07
#2900000
1!
1'
1+
1/
17
#3000000
0!
0'
0+
0/
07
#3100000
1!
1'
1+
1/
17
b0000000000001001 3
b0000000000001001 ;
11
19
12
1:
#3200000
0!
0'
0+
0/
07
#3300000
1!
1'
1+
1/
17
01
09
02
0:
b0000000000000000 3
b0000000000000000 ;
0B
#3400000
0!
0'
0+
0/
07
#3500000
1!
1'
1+
1/
17
b00000000 @
b00000000 -
#3600000
0!
0'
0+
0/
07
#3700000
1!
1'
1+
1/
17
b0000000000001001 3
b0000000000001001 ;
11
19
#3800000
0!
0'
0+
0/
07
#3900000
1!
1'
1+
1/
17
01
09
b0000000000000000 3
b0000000000000000 ;
b0000000000000000 =
b0000000000000000 5
#4000000
0!
0'
0+
0/
07
#4100000
1!
1'
1+
1/
17
#4200000
0!
0'
0+
0/
07
#4300000
1!
1'
1+
1/
17
b0000000000000101 3
b0000000000000101 ;
11
19
#4400000
0!
0'
0+
0/
07
#4500000
1!
1'
1+
1/
17
01
09
b0000000000000000 3
b0000000000000000 ;
#4600000
0!
0'
0+
0/
07
#4700000
1!
1'
1+
1/
17
#4800000
0!
0'
0+
0/
07
#4900000
1!
1'
1+
1/
17
b0000000000000110 3
b0000000000000110 ;
11
19
#5000000
0!
0'
0+
0/
07
#5100000
1!
1'
1+
1/
17
01
09
b0000000000000000 3
b0000000000000000 ;
b1111111111111101 =
b1111111111111101 5
#5200000
0!
0'
0+
0/
07
#5300000
1!
1'
1+
1/
17
#5400000
0!
0'
0+
0/
07
#5500000
1!
1'
1+
1/
17
#5600000
0!
0'
0+
0/
07
#5700000
1!
1'
1+
1/
17
#5800000
0!
0'
0+
0/
07
#5900000
1!
1'
1+
1/
17
#6000000
0!
0'
0+
0/
07
#6100000
1!
1'
1+
1/
17
1*
1?
b01011010 )
b01011010 >
#6200000
0!
0'
0+
0/
07
#6300000
1!
1'
1+
1/
17
b00010010 )
b00010010 >
b01011010 @
b01011010 -
1A
1.
b00000000000000001111111111111110 6
b1111111111111110 E
b01111111111111111 C
#6400000
0!
0'
0+
0/
07
#6500000
1!
1'
1+
1/
17
b00000001 )
b00000001 >
b00010010 @
b00010010 -
b00000000000000001111111111111111 6
b1111111111111111 E
b10000000000000000 C
#6600000
0!
0'
0+
0/
07
#6700000
1!
1'
1+
1/
17
b01011001 )
b01011001 >
b00000001 @
b00000001 -
b00000000000000000000000000000000 6
b0000000000000000 E
b00000000000000001 C
b00000000000000010000000000000000 6
b0000000000000001 G
b00000000000000010 D
#6800000
0!
0'
0+
0/
07
#6900000
1!
1'
1+
1/
17
b10110110 )
b10110110 >
b01011001 @
b01011001 -
b00000000000000010000000000000001 6
b0000000000000001 E
b00000000000000010 C
#7000000
0!
0'
0+
0/
07
#7100000
1!
1'
1+
1/
17
b00000110 )
b00000110 >
b10110110 @
b10110110 -
b00000000000000010000000000000010 6
b0000000000000010 E
b00000000000000011 C
#7200000
0!
0'
0+
0/
07
#7300000
1!
1'
1+
1/
17
b11010010 )
b11010010 >
b00000110 @
b00000110 -
b00000000000000010000000000000011 6
b0000000000000011 E
b00000000000000100 C
#7400000
0!
0'
0+
0/
07
#7500000
1!
1'
1+
1/
17
b10010110 )
b10010110 >
b11010010 @
b11010010 -
b00000000000000010000000000000100 6
b0000000000000100 E
b00000000000000101 C
#7600000
0!
0'
0+
0/
07
#7700000
1!
1'
1+
1/
17
b11111100 )
b11111100 >
b10010110 @
b10010110 -
b00000000000000010000000000000101 6
b0000000000000101 E
b00000000000000110 C
#7800000
0!
0'
0+
0/
07
#7900000
1!
1'
1+
1/
17
b01110100 )
b01110100 >
b11111100 @
b11111100 -
b00000000000000010000000000000110 6
b0000000000000110 E
b00000000000000111 C
#8000000
0!
0'
0+
0/
07
#8100000
1!
1'
1+
1/
17
b11000011 )
b11000011 >
b01110100 @
b01110100 -
b00000000000000010000000000000111 6
b0000000000000111 E
b00000000000001000 C
#8200000
0!
0'
0+
0/
07
#8300000
1!
1'
1+
1/
17
b00010011 )
b00010011 >
b11000011 @
b11000011 -
b00000000000000010000000000001000 6
b0000000000001000 E
b00000000000001001 C
#8400000
0!
0'
0+
0/
07
#8500000
1!
1'
1+
1/
17
b01001101 )
b01001101 >
b00010011 @
b00010011 -
b00000000000000010000000000001001 6
b0000000000001001 E
b00000000000001010 C
#8600000
0!
0'
0+
0/
07
#8700000
1!
1'
1+
1/
17
b00111001 )
b00111001 >
b01001101 @
b01001101 -
b00000000000000010000000000001010 6
b0000000000001010 E
b00000000000001011 C
#8800000
0!
0'
0+
0/
07
#8900000
1!
1'
1+
1/
17
b10000011 )
b10000011 >
b00111001 @
b00111001 -
b00000000000000010000000000001011 6
b0000000000001011 E
b00000000000001100 C
#9000000
0!
0'
0+
0/
07
#9100000
1!
1'
1+
1/
17
b01000110 )
b01000110 >
b10000011 @
b10000011 -
b00000000000000010000000000001100 6
b0000000000001100 E
b00000000000001101 C
#9200000
0!
0'
0+
0/
07
#9300000
1!
1'
1+
1/
17
b00111111 )
b00111111 >
b01000110 @
b01000110 -
b00000000000000010000000000001101 6
b0000000000001101 E
b00000000000001110 C
#9400000
0!
0'
0+
0/
07
#9500000
1!
1'
1+
1/
17
b00000111 )
b00000111 >
b00111111 @
b00111111 -
b00000000000000010000000000001110 6
b0000000000001110 E
b00000000000001111 C
#9600000
0!
0'
0+
0/
07
#9700000
1!
1'
1+
1/
17
b10100101 )
b10100101 >
b00000111 @
b00000111 -
b00000000000000010000000000001111 6
b0000000000001111 E
b00000000000010000 C
#9800000
0!
0'
0+
0/
07
#9900000
1!
1'
1+
1/
17
b00111001 )
b00111001 >
b10100101 @
b10100101 -
b00000000000000010000000000010000 6
b0000000000010000 E
b00000000000010001 C
#10000000
0!
0'
0+
0/
07
#10100000
1!
1'
1+
1/
17
b00011001 )
b00011001 >
b00111001 @
b00111001 -
b00000000000000010000000000010001 6
b0000000000010001 E
b00000000000010010 C
#10200000
0!
0'
0+
0/
07
#10300000
1!
1'
1+
1/
17
b11110101 )
b11110101 >
b00011001 @
b00011001 -
b00000000000000010000000000010010 6
b0000000000010010 E
b00000000000010011 C
#10400000
0!
0'
0+
0/
07
#10500000
1!
1'
1+
1/
17
b01101011 )
b01101011 >
b11110101 @
b11110101 -
b00000000000000010000000000010011 6
b0000000000010011 E
b00000000000010100 C
#10600000
0!
0'
0+
0/
07
#10700000
1!
1'
1+
1/
17
b00011101 )
b00011101 >
b01101011 @
b01101011 -
b00000000000000010000000000010100 6
b0000000000010100 E
b00000000000010101 C
#10800000
0!
0'
0+
0/
07
#10900000
1!
1'
1+
1/
17
b00001101 )
b00001101 >
b00011101 @
b00011101 -
b00000000000000010000000000010101 6
b0000000000010101 E
b00000000000010110 C
#11000000
0!
0'
0+
0/
07
#11100000
1!
1'
1+
1/
17
b10010101 )
b10010101 >
b00001101 @
b00001101 -
b00000000000000010000000000010110 6
b0000000000010110 E
b00000000000010111 C
#11200000
0!
0'
0+
0/
07
#11300000
1!
1'
1+
1/
17
b11000000 )
b11000000 >
b10010101 @
b10010101 -
b00000000000000010000000000010111 6
b0000000000010111 E
b00000000000011000 C
#11400000
0!
0'
0+
0/
07
#11500000
1!
1'
1+
1/
17
b00011110 )
b00011110 >
b11000000 @
b11000000 -
b00000000000000010000000000011000 6
b0000000000011000 E
b00000000000011001 C
#11600000
0!
0'
0+
0/
07
#11700000
1!
1'
1+
1/
17
b11000011 )
b11000011 >
b00011110 @
b00011110 -
b00000000000000010000000000011001 6
b0000000000011001 E
b00000000000011010 C
#11800000
0!
0'
0+
0/
07
#11900000
1!
1'
1+
1/
17
b00101010 )
b00101010 >
b11000011 @
b11000011 -
b00000000000000010000000000011010 6
b0000000000011010 E
b00000000000011011 C
#12000000
0!
0'
0+
0/
07
#12100000
1!
1'
1+
1/
17
b10000110 )
b10000110 >
b00101010 @
b00101010 -
b00000000000000010000000000011011 6
b0000000000011011 E
b00000000000011100 C
#12200000
0!
0'
0+
0/
07
#12300000
1!
1'
1+
1/
17
b00001111 )
b00001111 >
b10000110 @
b10000110 -
b00000000000000010000000000011100 6
b0000000000011100 E
b00000000000011101 C
#12400000
0!
0'
0+
0/
07
#12500000
1!
1'
1+
1/
17
b00011000 )
b00011000 >
b00001111 @
b00001111 -
b00000000000000010000000000011101 6
b0000000000011101 E
b00000000000011110 C
#12600000
0!
0'
0+
0/
07
#12700000
1!
1'
1+
1/
17
b11101111 )
b11101111 >
b00011000 @
b00011000 -
b00000000000000010000000000011110 6
b0000000000011110 E
b00000000000011111 C
#12800000
0!
0'
0+
0/
07
#12900000
1!
1'
1+
1/
17
b10011101 )
b10011101 >
b11101111 @
b11101111 -
b00000000000000010000000000011111 6
b0000000000011111 E
b00000000000100000 C
#13000000
0!
0'
0+
0/
07
#13100000
1!
1'
1+
1/
17
b10010000 )
b10010000 >
b10011101 @
b10011101 -
b00000000000000010000000000100000 6
b0000000000100000 E
b00000000000100001 C
#13200000
0!
0'
0+
0/
07
#13300000
1!
1'
1+
1/
17
b10001000 )
b10001000 >
b10010000 @
b10010000 -
b00000000000000010000000000100001 6
b0000000000100001 E
b00000000000100010 C
#13400000
0!
0'
0+
0/
07
#13500000
1!
1'
1+
1/
17
b00001011 )
b00001011 >
b10001000 @
b10001000 -
b00000000000000010000000000100010 6
b0000000000100010 E
b00000000000100011 C
#13600000
0!
0'
0+
0/
07
#13700000
1!
1'
1+
1/
17
b00010110 )
b00010110 >
b00001011 @
b00001011 -
b00000000000000010000000000100011 6
b0000000000100011 E
b00000000000100100 C
#13800000
0!
0'
0+
0/
07
#13900000
1!
1'
1+
1/
17
b01101100 )
b01101100 >
b00010110 @
b00010110 -
b00000000000000010000000000100100 6
b0000000000100100 E
b00000000000100101 C
#14000000
0!
0'
0+
0/
07
#14100000
1!
1'
1+
1/
17
b01110101 )
b01110101 >
b01101100 @
b01101100 -
b00000000000000010000000000100101 6
b0000000000100101 E
b00000000000100110 C
#14200000
0!
0'
0+
0/
07
#14300000
1!
1'
1+
1/
17
b11110001 )
b11110001 >
b01110101 @
b01110101 -
b00000000000000010000000000100110 6
b0000000000100110 E
b00000000000100111 C
#14400000
0!
0'
0+
0/
07
#14500000
1!
1'
1+
1/
17
b11000110 )
b11000110 >
b11110001 @
b11110001 -
b00000000000000010000000000100111 6
b0000000000100111 E
b00000000000101000 C
#14600000
0!
0'
0+
0/
07
#14700000
1!
1'
1+
1/
17
b10100111 )
b10100111 >
b11000110 @
b11000110 -
b00000000000000010000000000101000 6
b0000000000101000 E
b00000000000101001 C
#14800000
0!
0'
0+
0/
07
#14900000
1!
1'
1+
1/
17
b01010000 )
b01010000 >
b10100111 @
b10100111 -
b00000000000000010000000000101001 6
b0000000000101001 E
b00000000000101010 C
#15000000
0!
0'
0+
0/
07
#15100000
1!
1'
1+
1/
17
b11110111 )
b11110111 >
b01010000 @
b01010000 -
b00000000000000010000000000101010 6
b0000000000101010 E
b00000000000101011 C
#15200000
0!
0'
0+
0/
07
#15300000
1!
1'
1+
1/
17
b11111011 )
b11111011 >
b11110111 @
b11110111 -
b00000000000000010000000000101011 6
b0000000000101011 E
b00000000000101100 C
#15400000
0!
0'
0+
0/
07
#15500000
1!
1'
1+
1/
17
b00110101 )
b00110101 >
b11111011 @
b11111011 -
b00000000000000010000000000101100 6
b0000000000101100 E
b00000000000101101 C
#15600000
0!
0'
0+
0/
07
#15700000
1!
1'
1+
1/
17
b01100100 )
b01100100 >
b00110101 @
b00110101 -
b00000000000000010000000000101101 6
b0000000000101101 E
b00000000000101110 C
#15800000
0!
0'
0+
0/
07
#15900000
1!
1'
1+
1/
17
b11010101 )
b11010101 >
b01100100 @
b01100100 -
b00000000000000010000000000101110 6
b0000000000101110 E
b00000000000101111 C
#16000000
0!
0'
0+
0/
07
#16100000
1!
1'
1+
1/
17
b01101010 )
b01101010 >
b11010101 @
b11010101 -
b00000000000000010000000000101111 6
b0000000000101111 E
b00000000000110000 C
#16200000
0!
0'
0+
0/
07
#16300000
1!
1'
1+
1/
17
b10001111 )
b10001111 >
b01101010 @
b01101010 -
b00000000000000010000000000110000 6
b0000000000110000 E
b00000000000110001 C
#16400000
0!
0'
0+
0/
07
#16500000
1!
1'
1+
1/
17
b01000100 )
b01000100 >
b10001111 @
b10001111 -
b00000000000000010000000000110001 6
b0000000000110001 E
b00000000000110010 C
#16600000
0!
0'
0+
0/
07
#16700000
1!
1'
1+
1/
17
b11110110 )
b11110110 >
b01000100 @
b01000100 -
b00000000000000010000000000110010 6
b0000000000110010 E
b00000000000110011 C
#16800000
0!
0'
0+
0/
07
#16900000
1!
1'
1+
1/
17
b00000111 )
b00000111 >
b11110110 @
b11110110 -
b00000000000000010000000000110011 6
b0000000000110011 E
b00000000000110100 C
#17000000
0!
0'
0+
0/
07
#17100000
1!
1'
1+
1/
17
b10010111 )
b10010111 >
b00000111 @
b00000111 -
b00000000000000010000000000110100 6
b0000000000110100 E
b00000000000110101 C
#17200000
0!
0'
0+
0/
07
#17300000
1!
1'
1+
1/
17
b10111010 )
b10111010 >
b10010111 @
b10010111 -
b00000000000000010000000000110101 6
b0000000000110101 E
b00000000000110110 C
#17400000
0!
0'
0+
0/
07
#17500000
1!
1'
1+
1/
17
b00100001 )
b00100001 >
b10111010 @
b10111010 -
b00000000000000010000000000110110 6
b0000000000110110 E
b00000000000110111 C
#17600000
0!
0'
0+
0/
07
#17700000
1!
1'
1+
1/
17
b10010110 )
b10010110 >
b00100001 @
b00100001 -
b00000000000000010000000000110111 6
b0000000000110111 E
b00000000000111000 C
#17800000
0!
0'
0+
0/
07
#17900000
1!
1'
1+
1/
17
b01111111 )
b01111111 >
b10010110 @
b10010110 -
b00000000000000010000000000111000 6
b0000000000111000 E
b00000000000111001 C
#18000000
0!
0'
0+
0/
07
#18100000
1!
1'
1+
1/
17
b01100011 )
b01100011 >
b01111111 @
b01111111 -
b00000000000000010000000000111001 6
b0000000000111001 E
b00000000000111010 C
#18200000
0!
0'
0+
0/
07
#18300000
1!
1'
1+
1/
17
b10101100 )
b10101100 >
b01100011 @
b01100011 -
b00000000000000010000000000111010 6
b0000000000111010 E
b00000000000111011 C
#18400000
0!
0'
0+
0/
07
#18500000
1!
1'
1+
1/
17
b11011000 )
b11011000 >
b10101100 @
b10101100 -
b00000000000000010000000000111011 6
b0000000000111011 E
b00000000000111100 C
#18600000
0!
0'
0+
0/
07
#18700000
1!
1'
1+
1/
17
b11111001 )
b11111001 >
b11011000 @
b11011000 -
b00000000000000010000000000111100 6
b0000000000111100 E
b00000000000111101 C
#18800000
0!
0'
0+
0/
07
#18900000
1!
1'
1+
1/
17
b10101100 )
b10101100 >
b11111001 @
b11111001 -
b00000000000000010000000000111101 6
b0000000000111101 E
b00000000000111110 C
#19000000
0!
0'
0+
0/
07
#19100000
1!
1'
1+
1/
17
b01001110 )
b01001110 >
b10101100 @
b10101100 -
b00000000000000010000000000111110 6
b0000000000111110 E
b00000000000111111 C
#19200000
0!
0'
0+
0/
07
#19300000
1!
1'
1+
1/
17
b00101000 )
b00101000 >
b01001110 @
b01001110 -
b00000000000000010000000000111111 6
b0000000000111111 E
b00000000001000000 C
#19400000
0!
0'
0+
0/
07
#19500000
1!
1'
1+
1/
17
b11110000 )
b11110000 >
b00101000 @
b00101000 -
b00000000000000010000000001000000 6
b0000000001000000 E
b00000000001000001 C
#19600000
0!
0'
0+
0/
07
#19700000
1!
1'
1+
1/
17
b01100100 )
b01100100 >
b11110000 @
b11110000 -
b00000000000000010000000001000001 6
b0000000001000001 E
b00000000001000010 C
#19800000
0!
0'
0+
0/
07
#19900000
1!
1'
1+
1/
17
b01001000 )
b01001000 >
b01100100 @
b01100100 -
b00000000000000010000000001000010 6
b0000000001000010 E
b00000000001000011 C
#20000000
0!
0'
0+
0/
07
#20100000
1!
1'
1+
1/
17
b01110110 )
b01110110 >
b01001000 @
b01001000 -
b00000000000000010000000001000011 6
b0000000001000011 E
b00000000001000100 C
#20200000
0!
0'
0+
0/
07
#20300000
1!
1'
1+
1/
17
b10011101 )
b10011101 >
b01110110 @
b01110110 -
b00000000000000010000000001000100 6
b0000000001000100 E
b00000000001000101 C
#20400000
0!
0'
0+
0/
07
#20500000
1!
1'
1+
1/
17
b00111011 )
b00111011 >
b10011101 @
b10011101 -
b00000000000000010000000001000101 6
b0000000001000101 E
b00000000001000110 C
#20600000
0!
0'
0+
0/
07
#20700000
1!
1'
1+
1/
17
b11110000 )
b11110000 >
b00111011 @
b00111011 -
b00000000000000010000000001000110 6
b0000000001000110 E
b00000000001000111 C
#20800000
0!
0'
0+
0/
07
#20900000
1!
1'
1+
1/
17
b00011110 )
b00011110 >
b11110000 @
b11110000 -
b00000000000000010000000001000111 6
b0000000001000111 E
b00000000001001000 C
#21000000
0!
0'
0+
0/
07
#21100000
1!
1'
1+
1/
17
b01100100 )
b01100100 >
b00011110 @
b00011110 -
b00000000000000010000000001001000 6
b0000000001001000 E
b00000000001001001 C
#21200000
0!
0'
0+
0/
07
#21300000
1!
1'
1+
1/
17
b11100110 )
b11100110 >
b01100100 @
b01100100 -
b00000000000000010000000001001001 6
b0000000001001001 E
b00000000001001010 C
#21400000
0!
0'
0+
0/
07
#21500000
1!
1'
1+
1/
17
b10111110 )
b10111110 >
b11100110 @
b11100110 -
b00000000000000010000000001001010 6
b0000000001001010 E
b00000000001001011 C
#21600000
0!
0'
0+
0/
07
#21700000
1!
1'
1+
1/
17
b00010011 )
b00010011 >
b10111110 @
b10111110 -
b00000000000000010000000001001011 6
b0000000001001011 E
b00000000001001100 C
#21800000
0!
0'
0+
0/
07
#21900000
1!
1'
1+
1/
17
b10101110 )
b10101110 >
b00010011 @
b00010011 -
b00000000000000010000000001001100 6
b0000000001001100 E
b00000000001001101 C
#22000000
0!
0'
0+
0/
07
#22100000
1!
1'
1+
1/
17
b01101001 )
b01101001 >
b10101110 @
b10101110 -
b00000000000000010000000001001101 6
b0000000001001101 E
b00000000001001110 C
#22200000
0!
0'
0+
0/
07
#22300000
1!
1'
1+
1/
17
b10000001 )
b10000001 >
b01101001 @
b01101001 -
b00000000000000010000000001001110 6
b0000000001001110 E
b00000000001001111 C
#22400000
0!
0'
0+
0/
07
#22500000
1!
1'
1+
1/
17
b01101100 )
b01101100 >
b10000001 @
b10000001 -
b00000000000000010000000001001111 6
b0000000001001111 E
b00000000001010000 C
#22600000
0!
0'
0+
0/
07
#22700000
1!
1'
1+
1/
17
b11000001 )
b11000001 >
b01101100 @
b01101100 -
b00000000000000010000000001010000 6
b0000000001010000 E
b00000000001010001 C
#22800000
0!
0'
0+
0/
07
#22900000
1!
1'
1+
1/
17
b10110100 )
b10110100 >
b11000001 @
b11000001 -
b00000000000000010000000001010001 6
b0000000001010001 E
b00000000001010010 C
#23000000
0!
0'
0+
0/
07
#23100000
1!
1'
1+
1/
17
b00111100 )
b00111100 >
b10110100 @
b10110100 -
b00000000000000010000000001010010 6
b0000000001010010 E
b00000000001010011 C
#23200000
0!
0'
0+
0/
07
#23300000
1!
1'
1+
1/
17
b11011111 )
b11011111 >
b00111100 @
b00111100 -
b00000000000000010000000001010011 6
b0000000001010011 E
b00000000001010100 C
#23400000
0!
0'
0+
0/
07
#23500000
1!
1'
1+
1/
17
b10100010 )
b10100010 >
b11011111 @
b11011111 -
b00000000000000010000000001010100 6
b0000000001010100 E
b00000000001010101 C
#23600000
0!
0'
0+
0/
07
#23700000
1!
1'
1+
1/
17
b00110011 )
b00110011 >
b10100010 @
b10100010 -
b00000000000000010000000001010101 6
b0000000001010101 E
b00000000001010110 C
#23800000
0!
0'
0+
0/
07
#23900000
1!
1'
1+
1/
17
b01101111 )
b01101111 >
b00110011 @
b00110011 -
b00000000000000010000000001010110 6
b0000000001010110 E
b00000000001010111 C
#24000000
0!
0'
0+
0/
07
#24100000
1!
1'
1+
1/
17
b01000011 )
b01000011 >
b01101111 @
b01101111 -
b00000000000000010000000001010111 6
b0000000001010111 E
b00000000001011000 C
#24200000
0!
0'
0+
0/
07
#24300000
1!
1'
1+
1/
17
b00101110 )
b00101110 >
b01000011 @
b01000011 -
b00000000000000010000000001011000 6
b0000000001011000 E
b00000000001011001 C
#24400000
0!
0'
0+
0/
07
#24500000
1!
1'
1+
1/
17
b00011111 )
b00011111 >
b00101110 @
b00101110 -
b00000000000000010000000001011001 6
b0000000001011001 E
b00000000001011010 C
#24600000
0!
0'
0+
0/
07
#24700000
1!
1'
1+
1/
17
b01000100 )
b01000100 >
b00011111 @
b00011111 -
b00000000000000010000000001011010 6
b0000000001011010 E
b00000000001011011 C
#24800000
0!
0'
0+
0/
07
#24900000
1!
1'
1+
1/
17
b11010101 )
b11010101 >
b01000100 @
b01000100 -
b00000000000000010000000001011011 6
b0000000001011011 E
b00000000001011100 C
#25000000
0!
0'
0+
0/
07
#25100000
1!
1'
1+
1/
17
b00101101 )
b00101101 >
b11010101 @
b11010101 -
b00000000000000010000000001011100 6
b0000000001011100 E
b00000000001011101 C
#25200000
0!
0'
0+
0/
07
#25300000
1!
1'
1+
1/
17
b00100110 )
b00100110 >
b00101101 @
b00101101 -
b00000000000000010000000001011101 6
b0000000001011101 E
b00000000001011110 C
#25400000
0!
0'
0+
0/
07
#25500000
1!
1'
1+
1/
17
b00010100 )
b00010100 >
b00100110 @
b00100110 -
b00000000000000010000000001011110 6
b0000000001011110 E
b00000000001011111 C
#25600000
0!
0'
0+
0/
07
#25700000
1!
1'
1+
1/
17
b01101001 )
b01101001 >
b00010100 @
b00010100 -
b00000000000000010000000001011111 6
b0000000001011111 E
b00000000001100000 C
#25800000
0!
0'
0+
0/
07
#25900000
1!
1'
1+
1/
17
b11011111 )
b11011111 >
b01101001 @
b01101001 -
b00000000000000010000000001100000 6
b0000000001100000 E
b00000000001100001 C
#26000000
0!
0'
0+
0/
07
#26100000
1!
1'
1+
1/
17
b01101010 )
b01101010 >
b11011111 @
b11011111 -
b00000000000000010000000001100001 6
b0000000001100001 E
b00000000001100010 C
#26200000
0!
0'
0+
0/
07
#26300000
1!
1'
1+
1/
17
b11110000 )
b11110000 >
b01101010 @
b01101010 -
b00000000000000010000000001100010 6
b0000000001100010 E
b00000000001100011 C
#26400000
0!
0'
0+
0/
07
#26500000
1!
1'
1+
1/
17
b01011000 )
b01011000 >
b11110000 @
b11110000 -
b00000000000000010000000001100011 6
b0000000001100011 E
b00000000001100100 C
#26600000
0!
0'
0+
0/
07
#26700000
1!
1'
1+
1/
17
b01100001 )
b01100001 >
b01011000 @
b01011000 -
b00000000000000010000000001100100 6
b0000000001100100 E
b00000000001100101 C
#26800000
0!
0'
0+
0/
07
#26900000
1!
1'
1+
1/
17
b11110101 )
b11110101 >
b01100001 @
b01100001 -
b00000000000000010000000001100101 6
b0000000001100101 E
b00000000001100110 C
#27000000
0!
0'
0+
0/
07
#27100000
1!
1'
1+
1/
17
b11101100 )
b11101100 >
b11110101 @
b11110101 -
b00000000000000010000000001100110 6
b0000000001100110 E
b00000000001100111 C
#27200000
0!
0'
0+
0/
07
#27300000
1!
1'
1+
1/
17
b10100110 )
b10100110 >
b11101100 @
b11101100 -
b00000000000000010000000001100111 6
b0000000001100111 E
b00000000001101000 C
#27400000
0!
0'
0+
0/
07
#27500000
1!
1'
1+
1/
17
b10010001 )
b10010001 >
b10100110 @
b10100110 -
b00000000000000010000000001101000 6
b0000000001101000 E
b00000000001101001 C
#27600000
0!
0'
0+
0/
07
#27700000
1!
1'
1+
1/
17
b11000100 )
b11000100 >
b10010001 @
b10010001 -
b00000000000000010000000001101001 6
b0000000001101001 E
b00000000001101010 C
#27800000
0!
0'
0+
0/
07
#27900000
1!
1'
1+
1/
17
b11011100 )
b11011100 >
b11000100 @
b11000100 -
b00000000000000010000000001101010 6
b0000000001101010 E
b00000000001101011 C
#28000000
0!
0'
0+
0/
07
#28100000
1!
1'
1+
1/
17
b01101100 )
b01101100 >
b11011100 @
b11011100 -
b00000000000000010000000001101011 6
b0000000001101011 E
b00000000001101100 C
#28200000
0!
0'
0+
0/
07
#28300000
1!
1'
1+
1/
17
b00100100 )
b00100100 >
b01101100 @
b01101100 -
b00000000000000010000000001101100 6
b0000000001101100 E
b00000000001101101 C
#28400000
0!
0'
0+
0/
07
#28500000
1!
1'
1+
1/
17
b10001101 )
b10001101 >
b00100100 @
b00100100 -
b00000000000000010000000001101101 6
b0000000001101101 E
b00000000001101110 C
#28600000
0!
0'
0+
0/
07
#28700000
1!
1'
1+
1/
17
b11010011 )
b11010011 >
b10001101 @
b10001101 -
b00000000000000010000000001101110 6
b0000000001101110 E
b00000000001101111 C
#28800000
0!
0'
0+
0/
07
#28900000
1!
1'
1+
1/
17
b11101001 )
b11101001 >
b11010011 @
b11010011 -
b00000000000000010000000001101111 6
b0000000001101111 E
b00000000001110000 C
#29000000
0!
0'
0+
0/
07
#29100000
1!
1'
1+
1/
17
b00100011 )
b00100011 >
b11101001 @
b11101001 -
b00000000000000010000000001110000 6
b0000000001110000 E
b00000000001110001 C
