ch7/section7.5/7.5.1/top_tb.vcd
$date
	Tue Aug 20 22:27:35 2024
$end

$version
	Synopsys VCS version O-2018.09-1_Full64
$end

$timescale
	1ps
$end

$comment Csum: 1 87d9864e4757d835 $end


$scope module top_tb $end
$var reg 1 ! clk $end
$var reg 1 " rst_n $end
$var reg 8 # rxd [7:0] $end
$var reg 1 $ rx_dv $end
$var wire 8 % txd [7:0] $end
$var wire 1 & tx_en $end

$scope begin unnamed$$_vcs_4 $end
$upscope $end


$scope begin unnamed$$_vcs_0 $end
$upscope $end


$scope begin unnamed$$_vcs_1 $end
$upscope $end


$scope begin unnamed$$_vcs_2 $end
$upscope $end


$scope begin unnamed$$_vcs_3 $end
$upscope $end


$scope module input_if $end
$var wire 1 ' clk $end
$var wire 1 ( rst_n $end
$var reg 8 ) data [7:0] $end
$var reg 1 * valid $end
$upscope $end


$scope module output_if $end
$var wire 1 + clk $end
$var wire 1 , rst_n $end
$var reg 8 - data [7:0] $end
$var reg 1 . valid $end
$upscope $end


$scope module b_if $end
$var wire 1 / clk $end
$var wire 1 0 rst_n $end
$var reg 1 1 bus_cmd_valid $end
$var reg 1 2 bus_op $end
$var reg 16 3 bus_addr [15:0] $end
$var reg 16 4 bus_wr_data [15:0] $end
$var reg 16 5 bus_rd_data [15:0] $end
$upscope $end


$scope module my_dut $end
$var wire 1 6 clk $end
$var wire 1 7 rst_n $end
$var wire 1 8 bus_cmd_valid $end
$var wire 1 9 bus_op $end
$var wire 16 : bus_addr [15:0] $end
$var wire 16 ; bus_wr_data [15:0] $end
$var reg 16 < bus_rd_data [15:0] $end
$var wire 8 = rxd [7:0] $end
$var wire 1 > rx_dv $end
$var reg 8 ? txd [7:0] $end
$var reg 1 @ tx_en $end
$var reg 1 A invert $end
$upscope $end

$upscope $end

$enddefinitions $end

#0
$dumpvars
0!
0"
x$
z&
bxxxxxxxx #
bzzzzzzzz %
bxxxxxxxx )
bxxxxxxxx -
bxxxxxxxxxxxxxxxx 5
b0000000000000000 4
b0000000000000000 3
xA
x@
bxxxxxxxxxxxxxxxx <
bxxxxxxxx ?
0'
0+
0/
06
0(
0,
00
07
b0000000000000000 :
b0000000000000000 ;
bxxxxxxxx =
08
09
x>
x*
x.
01
02
$end
#100000
1!
1'
1+
1/
16
b00000000 ?
b00000000 -
0@
0.
0A
b0000000000000000 <
b0000000000000000 5
#200000
0!
0'
0+
0/
06
#300000
1!
1'
1+
1/
16
#400000
0!
0'
0+
0/
06
#500000
1!
1'
1+
1/
16
#600000
0!
0'
0+
0/
06
#700000
1!
1'
1+
1/
16
#800000
0!
0'
0+
0/
06
#900000
1!
1'
1+
1/
16
#1000000
1"
1(
1,
10
17
0!
0'
0+
0/
06
#1100000
1!
1'
1+
1/
16
bxxxxxxxx ?
bxxxxxxxx -
x@
x.
#1200000
0!
0'
0+
0/
06
#1300000
1!
1'
1+
1/
16
b0000000000001001 3
b0000000000001001 :
11
18
#1400000
0!
0'
0+
0/
06
#1500000
1!
1'
1+
1/
16
01
08
b0000000000000000 3
b0000000000000000 :
#1600000
0!
0'
0+
0/
06
#1700000
1!
1'
1+
1/
16
#1800000
0!
0'
0+
0/
06
#1900000
1!
1'
1+
1/
16
b0000000000001001 3
b0000000000001001 :
11
18
12
19
b0000000000000001 4
b0000000000000001 ;
#2000000
0!
0'
0+
0/
06
#2100000
1!
1'
1+
1/
16
01
08
02
09
b0000000000000000 3
b0000000000000000 :
b0000000000000000 4
b0000000000000000 ;
1A
#2200000
0!
0'
0+
0/
06
#2300000
1!
1'
1+
1/
16
0*
0>
b00000000 )
b00000000 =
#2400000
0!
0'
0+
0/
06
#2500000
1!
1'
1+
1/
16
b0000000000001001 3
b0000000000001001 :
11
18
b11111111 ?
b11111111 -
0@
0.
#2600000
0!
0'
0+
0/
06
#2700000
1!
1'
1+
1/
16
01
08
b0000000000000000 3
b0000000000000000 :
b0000000000000001 <
b0000000000000001 5
